1:
3.7
3.5
3.6
4.2
3.7
3.8
3.5
3.7
3.9
3.6
6426:
10:
3.3
3.2
1000:
3.4
3.3
3.1
4.1
3.6
3.6
3.5
10002:
4.0
3.5
4.2
3.8
10003:
2.8
10004:
4.4
3.9
4.0
3.8
10005:
3.6
3.8
3.4
3.3
10007:
2.9
3.2
3.0
3.0
2.9
3.1
2.9
10009:
3.6
3.5
4.1
3.1
3.0
3.5
1001:
3.4
3.6
3.7
3.3
3.9
3.8
10014:
3.2
3.7
3.1
3.8
3.4
10015:
3.7
3.5
3.3
3.6
3.8
3.6
3.9
3.7
3.8
3.7
3.8
3.6
3.5
3.9
3.9
3.6
3.7
3.9
3.6
3.9
4.4
3.9
4.1
3.7
3.4
3.5
4.0
3.7
10016:
2.7
2.8
2.9
15037:
3.6
3.9
3.7
3.7
3.9
3.9
4.5
3.7
3.7
3.9
3.6
3.8
3.7
3.9
4.0
4.0
3.5
3.7
3.7
3.6
3.8
3.6
3.9
3.7
3.6
4.0
3.7
4.4
15039:
3.6
3.4
3.3
3.4
3.5
3.7
3.6
3.7
3.4
3.4
3.5
3.2
3.7
3.4
3.1
3.7
3.5
4.2
3.7
3.5
3.4
3.9
1504:
3.4
3.0
3.3
2.7
3.3
3.6
2.9
2.9
3.2
3.2
3.3
15040:
3.7
3.8
3.9
3.9
15045:
3.1
3.3
3.4
3.8
3.5
3.5
3.4
3.1
3.4
3.5
3.4
3.2
3.5
3.4
3.6
3.4
3.7
3.4
3.8
3.0
3.3
3.6
3.6
3.5
3.1
15047:
3.1
3.0
2.9
3.0
3.4
15048:
3.8
3.8
3.4
3.4
3.8
3.2
3.6
4.1
3.8
3.6
3.7
3.7
4.0
3.9
3.8
2.9
3.8
3.6
3.6
3.7
3.6
3.4
3.6
3.4
3.6
4.3
3.6
3.3
3.7
3.5
16766:
4.6
3.8
3.9
3.9
4.2
4.0
3.6
16767:
3.5
3.7
3.4
4.3
3.6
3.8
3.5
3.9
4.0
4.1
3.4
4.1
3.8
3.9
3.8
3.7
16768:
3.4
3.2
3.4
3.9
3.8
3.4
3.6
3.1
3.5
3.1
2.8
3.7
3.8
3.6
1677:
2.8
16770:
2.8
3.4
2.9
3.3
3.3
16771:
3.8
3.5
2.8
3.2
3.7
3.4
3.2
16772:
3.7
3.7
3.6
3.7
3.7
4.0
3.6
3.5
3.8
3.9
3.9
4.1
3.9
3.6
3.6
3.8
16778:
3.0
3.1
3.2
3.3
2.7
3.2
2.8
2.6
3.0
3.1
2.6
2.8
3.0
3.1
2.6
3.2
3.1
3.5
3.1
3.4
3.0
3.7
3.3
3.1
3.0
2.9
1.8
3.2
3.1
3.2
3.0
2.9
3.1
3.5
1678:
3.6
3.4
3.8
3.4
3.4
3.7
3.9
3.7
3.4
3.4
3.4
3.6
3.2
3.6
3.3
3.2
3.4
3.6
3.7
3.5
3.6
3.8
3.5
4.1
3.4
3.6
3.4
3.7
3.5
16780:
3.6
3.4
3.5
3.1
3.6
3.3
3.7
4.0
3.9
3.7
3.7
3.7
3.5
3.4
3.3
16781:
3.5
3.4
3.5
3.3
3.6
3.4
3.4
3.0
3.3
3.1
1713:
3.7
3.9
17130:
2.9
3.4
3.3
3.8
3.8
17131:
3.5
3.4
3.2
3.4
3.1
3.9
3.0
3.4
3.6
3.3
3.3
3.7
3.5
3.9
17132:
3.3
3.7
3.5
3.4
3.2
17133:
4.0
3.5
3.5
4.0
3.5
3.9
3.5
3.7
3.9
3.4
3.5
17136:
3.4
3.7
4.0
3.6
3.6
3.6
3.2
3.8
3.4
3.4
3.5
3.5
3.4
3.6
3.5
3.8
3.8
3.5
3.8
3.5
3.5
3.2
3.9
3.2
4.0
3.3
3.9
3.4
3.9
3.1
3.4
3.3
4.2
4.1
3.0
3.6
2.8
3.7
3.8
3.3
3.5
3.9
3.7
3.7
3.2
3.6
3.6
3.2
3.8
3.7
4.1
3.4
3.7
3.2
3.1
3.7
3.7
3.4
3.9
3.6
3.6
3.8
3.6
3.0
3.2
3.4
3.7
3.6
4.0
3.6
4.0
3.7
3.4
3.3
3.5
17137:
3.4
3.3
17138:
3.4
2.4
3.0
3.4
3.3
3.3
17139:
3.6
3.1
3.6
3.1
3.5
3.3
3.5
3.5
3.4
1714:
3.1
3.5
3.4
3.4
3.2
17140:
3.3
4.0
3.9
3.7
3.4
3.4
17141:
2.9
3.5
3.3
2.7
3.2
3.2
17142:
3.0
3.2
3.4
3.6
3.0
3.5
17146:
3.9
4.1
3.8
3.9
3.8
3.7
3.8
4.2
3.8
4.0
4.1
3.8
4.1
3.9
4.0
3.8
3.8
3.4
3.6
3.7
3.8
3.7
3.9
4.2
3.5
4.2
3.9
3.6
4.0
3.9
3.9
3.9
3.8
3.7
4.0
3.8
4.2
3.7
4.0
3.6
4.0
4.1
3.9
3.4
4.0
4.1
3.8
3.9
1715:
3.2
3.5
2.6
2.4
2.9
3.5
2.6
3.4
3.0
3.5
3.2
3.0
2.9
3.2
3.3
2.8
3.0
2.6
3.6
3.0
3.4
3.3
3.4
2.9
3.1
3.3
3.7
3.7
2.8
3.3
3.8
3.3
2.5
3.6
3.7
3.5
3.0
2.9
3.7
3.3
3.7
3.2
2.8
2.6
3.5
3.2
3.2
3.0
3.3
3.0
3.3
17150:
3.6
3.0
17151:
3.8
3.8
3.6
3.9
3.6
3017:
3.4
3.6
3.7
3.7
3.9
3.9
3.9
3.7
3.9
3.8
3.4
3.7
4.1
3.8
3.8
3.8
3.4
3.6
3.4
3.6
3.9
3.5
3.7
4.1
3.7
3.8
3.6
3.9
3.5
3.7
3.3
3.9
3.6
3.8
3.8
3.6
3.6
3.8
3.7
4.1
4.1
3.5
4425:
2.7
3.1
3.2
3.4
2.7
3.1
2.6
2.9
2.6
3.0
4426:
4.1
3.4
3.7
3.3
3.8
4.2
3.8
3.5
3.7
3.4
3.6
3.6
3.4
3.7
3.8
3.3
3.5
3.6
3.7
3.5
3.6
4427:
4.2
4.0
4.2
4.2
3.8
4.3
4.7
4.3
4.0
3.8
4.1
4.4
4.1
4.3
4.1
4.3
4.3
4429:
3.2
3.9
3.7
3.3
3.6
3.8
3.4
3.4
3.5
3.6
3.3
3.3
3.3
3.3
3.6
3.5
3.3
3.5
3.4
3.2
3.4
3.5
3.3
3.2
3.3
3.0
3.2
3.4
3.5
3.1
3.5
3.6
4.0
3.7
3.1
4431:
3.5
3.3
3.8
3.5
3.3
3.3
3.5
3.2
3.9
4432:
3.9
3.8
3.9
4.4
3.5
3.4
3.9
4.1
3.7
3.9
4.1
3.8
3.4
3.7
3.9
3.8
3.7
3.5
3.4
3.8
4.0
3.9
4.3
3.8
3.8
4.3
4.0
3.8
3.6
3.9
3.7
3.8
4.1
3.7
4.0
3.9
3.7
3.4
4434:
3.5
3.3
3.2
3.1
3.5
3.0
4436:
3.3
3.1
3.4
4438:
3.5
3.2
3.4
3.6
3.4
3.3
3.6
3.8
3.6
3.6
2.9
3.4
3.1
3.3
3.4
4439:
4.2
3.5
3.5
3.4
3.8
3.5
3.6
3.5
3.2
3.6
3.8
3.7
3.5
3.6
3.7
3.8
3.7
3.6
3.6
3.3
3.6
3.5
3.5
3.5
3.3
4442:
3.3
3.6
2.6
3.3
3.2
3.3
3.5
3.0
3.3
3.4
3.2
3.1
3.1
2.7
3.1
3.1
3.3
3.2
2.7
3.1
2.9
3.0
2.9
3.4
3.4
3.1
3.4
3.6
3.3
3.5
3.3
2.8
3.0
3.3
3.4
3.5
3.2
3.4
3.3
2.9
4443:
3.0
4444:
3.5
2.8
3.9
3.8
3.6
3.4
3.7
3.7
3.1
4.2
4.1
3.4
445:
3.6
3.2
3.7
3.6
3.5
3.8
3.5
3.8
3.9
3.5
3.5
3.4
3.5
3.6
3.3
3.7
3.2
3.2
4.0
3.7
3.4
3.5
3.6
3.3
3.4
3.6
3.8
3.3
3.1
3.5
3.7
3.6
3.8
3.5
3.2
3.5
3.6
3.6
3.6
3.4
3.4
3.6
3.7
4.0
533:
3.5
3.4
3.8
3.8
3.7
4.1
3.1
3.5
3.7
3.7
3.7
3.3
3.1
3.3
3.2
3.5
3.4
3.5
3.4
4.0
3.3
3.6
3.2
3.8
3.2
3.1
3.1
3.4
3.9
4.0
3.3
3.5
3.2
3.5
3.9
3.6
3.3
3.4
3.3
3.5
3.6
3.6
3.5
3.4
3.5
5330:
3.9
3.8
3.4
3.7
3.5
3.5
3.6
3.4
4.0
3.6
3.6
3.6
3.8
3.6
3.7
3.8
3.9
3.2
3.8
3.5
3.7
3.9
3.5
3.8
3.6
3.7
3.9
3.6
3.8
3.5
3.7
4.2
3.8
3.7
3.8
3.5
3.7
3.3
3.8
4.0
4.0
3.5
3.5
5334:
3.3
3.8
3.5
3.7
3.5
3.9
3.6
4.1
3.8
3.7
3.9
3.8
3.4
3.6
4.0
3.6
3.7
3.6
3.9
3.8
3.7
3.6
3.9
4.1
3.7
5336:
3.5
3.4
3.6
4.0
3.4
3.6
3.2
3.7
3.4
6032:
3.5
3.5
3.4
3.6
3.8
3.6
3.4
3.5
3.6
3.1
3.7
3.7
2.8
3.3
3.9
3.6
3.0
3.6
3.7
4.2
3.7
3.6
3.4
3.6
3.3
3.6
3.5
3.8
3.4
3.7
3.3
3.5
3.6
3.3
3.6
3.5
3.7
3.8
3.6
3.8
3.8
4.0
3.3
3.6
3.4
3.8
6033:
4.0
4.1
4.0
3.7
3.1
3.7
3.9
3.7
3.9
3.8
3.8
3.9
6034:
2.8
2.3
3.0
2.6
2.8
3.2
2.8
3.2
3.0
2.4
6314:
2.9
3.8
2.9
3.3
3.4
3.3
3.5
3.1
3.5
3.1
3.0
3.0
3.3
3.6
2.9
3.0
3.5
3.7
3.2
2.9
3.2
2.7
3.2
3.0
3.2
6315:
3.7
3.6
3.1
3.6
3.2
3.2
3.6
3.1
3.4
3.7
3.1
3.9
3.9
3.4
2.9
3.5
6316:
3.3
3.3
3.0
6317:
3.7
6318:
3.4
3.7
3.2
3.2
3.7
3.6
3.4
6425:
6323:
2.9
3.0
3.1
3.9
3.1
6324:
3.8
3.5
3.8
4.0
3.6
4.2
3.7
4.0
3.5
3.9
3.8
3.9
4.0
3.6
3.6
4.1
4.1
3.8
3.7
4.2
4.1
3.5
3.7
3.4
3.6
3.9
6326:
3.3
3.8
3.6
3.9
3.7
4.1
3.1
0.96
