11561:
2.969
2.7855
2.7065
11562:
3.6
3.6115
3.519
3.6315
3.5375
3.877
3.877
3.572
3.673
3.234
3.7715
3.4379999999999997
3.7365
4.377
3.6959999999999997
11563:
3.88
3.3070000000000004
3.7625
3.207
3.798
3.4115
3.957
2.957
3.707
3.7695
4.057
3.0404999999999998
11564:
3.5545
3.4995000000000003
3.532
3.6345
3.499
3.915
3.981
3.7015000000000002
3.914
3.42
3.838
3.5975
3.9165
3.3985000000000003
3.552
4.218500000000001
3.948
3.4645
3.656
3.816
3.319
3.4320000000000004
3.2755
3.6865
3.696
3.899
3.5465
3.6580000000000004
3.7925
3.5010000000000003
11565:
3.053
3.0785
3.136
2.5145
3.293
2.742
2.849
3.2830000000000004
2.9775
2.7995
3.1705
11566:
3.5295
3.346
3.878
3.615
3.1470000000000002
3.5700000000000003
3.7855
3.206
3.6725000000000003
3.9575000000000005
3.7184999999999997
11567:
4.0465
3.4135
3.4785
3.545
3.589
3.646
3.4850000000000003
3.4535
3.357
3.8695
3.9195
4.141
3.8285
3.7035
3.7350000000000003
11569:
3.9495
4.0145
3.3834999999999997
4.0265
2.966
3.2855
2.693
1157:
2.157
3.0774999999999997
3.1075
3.5075000000000003
3.2885
3.402
3.5235000000000003
3.0285
3.0735
3.2805
2.9234999999999998
3.1295
3.2705
3.284
3.2795
3.4459999999999997
3.1925
11570:
3.3114999999999997
2.932
3.4320000000000004
2.9615
3.2045
11571:
3.857
3.4335
3.5395000000000003
3.4455
3.998
3.8175
3.7535
3.6365
3.409
3.5765000000000002
3.6465
3.7385
11572:
2.9295
2.9635
2.341
3.4975
1.766
2.7315
2.542
2.7885
3.1725000000000003
3.02
2.8994999999999997
2.9139999999999997
11573:
3.9154999999999998
3.514
4.108
3.961
3.9349999999999996
3.9274999999999998
4.233499999999999
4.2725
4.3175
4.0424999999999995
3.582
4.2485
4.071
3.707
3.8644999999999996
3.8329999999999997
3.8834999999999997
3.7485
4.332
3.824
4.071
3.8385
3.9819999999999998
3.8895
4.4765
4.2185
4.1155
3.9945
4.2485
3.6094999999999997
4.1045
4.246
3.9505
3.577
3.8529999999999998
4.332
4.182
4.073
4.082
3.86
3.9124999999999996
4.116
4.1015
4.013
3.902
3.532
3.953
3.7954999999999997
4.051
3.6849999999999996
3.9585
4.276
4.039
4.124
3.8735
3.8615
4.2695
4.4155
3.7234999999999996
3.9819999999999998
3.622
3.9299999999999997
3.989
3.9985
4.055
4.085
3.7355
4.087
3.7435
3.8024999999999998
3.9154999999999998
3.766
4.102
3.868
3.939
3.78
3.8795
4.0634999999999994
3.6805
3.654
3.832
3.5725
4.231
3.7995
4.1259999999999994
4.2545
4.1274999999999995
3.689
3.582
4.0065
3.6574999999999998
4.073
3.771
3.9819999999999998
3.8489999999999998
4.082
4.3675
3.801
3.7864999999999998
4.257
3.7714999999999996
3.136
3.8689999999999998
3.2485
4.2115
3.7285
4.1884999999999994
3.7485
3.948
4.1335
4.266
3.8964999999999996
4.1105
4.457
4.276
4.009
4.2675
4.082
4.082
3.7995
4.0215
3.9635
4.1655
4.0085
4.028
4.1205
3.82
3.8975
4.1625
3.681
4.096
4.1884999999999994
3.8549999999999995
3.8869999999999996
4.1365
4.1005
3.782
3.6704999999999997
4.1395
3.7764999999999995
3.9894999999999996
3.9545
4.1274999999999995
3.7779999999999996
4.082
3.8125
4.1325
4.385999999999999
4.057
3.945
4.018
3.7649999999999997
4.304
3.752
3.939
3.9225
4.0504999999999995
4.015499999999999
3.907
3.9154999999999998
4.0184999999999995
3.9805
3.7725
3.9455
3.9139999999999997
4.082
11574:
3.056
2.8515
11575:
3.2880000000000003
3.0475000000000003
3.257
3.5425
3.479
3.8755
3.3875
3.33
3.1155
11576:
3.2560000000000002
3.6685
3.6215
3.0025000000000004
3.293
3.343
3.2575000000000003
3.3465
3.574
3.5755
3.8795
3.286
3.6375
2.8075
3.354
3.1615
2.9465000000000003
3.4074999999999998
3.074
3.474
3.2030000000000003
3.238
3.27
3.324
3.1455
2.9715
3.7065
3.5115
3.3369999999999997
3.1574999999999998
3.074
3.3055000000000003
2.997
3.6065000000000005
11577:
3.681
3.44
3.2045
3.5084999999999997
3.449
3.5540000000000003
4.1274999999999995
3.1275
3.8649999999999998
3.3804999999999996
11578:
3.828
3.8695
3.6959999999999997
3.7135
3.7885
3.8689999999999998
4.4165
3.6245
3.464
4.0985
3.7154999999999996
4.0445
4.3965
3.849
4.0634999999999994
3.484
3.9699999999999998
3.931
4.349
3.8884999999999996
4.0024999999999995
3.7925
4.5634999999999994
4.198
3.902
3.7634999999999996
4.2044999999999995
3.8205
3.8225
4.1555
3.888
3.9585
4.2095
4.2219999999999995
3.7225
3.609
4.0634999999999994
4.0355
3.626
3.7584999999999997
3.8655
11579:
3.053
3.651
3.3025
1158:
4.0395
3.5774999999999997
3.4675000000000002
3.8015
2.94
3.638
3.7104999999999997
3.635
3.9459999999999997
3.684
3.3674999999999997
3.4295
3.856
3.6285
3.6725
3.5054999999999996
3.848
3.415
3.5060000000000002
3.6045
3.118
3.5995
3.705
3.6310000000000002
3.2009999999999996
3.5404999999999998
3.466
3.6094999999999997
3.8244999999999996
3.8185000000000002
3.395
3.7065
3.8375000000000004
3.4785
3.6395
3.55
3.393
3.025
3.277
3.623
3.8375000000000004
3.564
3.782
3.7275
3.1215
3.4755000000000003
3.622
3.338
3.3455
3.4295
3.5805
3.5229999999999997
3.383
3.3955
3.1515
3.6384999999999996
3.348
3.4705
3.487
3.6325
3.259
3.238
3.424
3.3994999999999997
3.4895
3.974
3.325
3.368
3.6224999999999996
3.9770000000000003
3.6215
3.7830000000000004
3.6035
3.5075
3.4905
3.634
3.7154999999999996
3.434
3.5675
3.0665
3.5315
2.9835000000000003
3.5175
3.364
3.5839999999999996
3.1215
3.6765
3.2465
3.6475
3.252
3.6005000000000003
3.529
3.8785
3.58
3.3605
3.5635
3.593
3.684
3.8709999999999996
3.7924999999999995
3.3884999999999996
3.9059999999999997
3.3535
3.5385
3.763
3.3985
11580:
3.1029999999999998
3.4699999999999998
3.214
3.2565
2.2765
3.3565
3.0685000000000002
11581:
3.0435
3.4525
2.9185
3.3835
3.3175
3.1685
11582:
3.532
3.5149999999999997
3.7904999999999998
3.7655000000000003
3.3674999999999997
3.6254999999999997
3.653
3.6245000000000003
3.4665
3.6615
3.3495
3.9829999999999997
11583:
3.669
3.9799999999999995
3.612
4.13
3.7969999999999997
3.3395
3.9509999999999996
3.5835
3.5854999999999997
3.8545
3.615
3.6950000000000003
3.5795
4.0085
3.799
11584:
3.2695
2.7705
2.998
3.5
3.208
3.4130000000000003
3.0585
11585:
3.274
3.3265
3.5715
3.248
3.5875
3.6454999999999997
3.2065
3.4595
3.19
11586:
3.3280000000000003
3.3445
3.628
11587:
3.127
3.567
3.6315
2.8985000000000003
3.388
3.4305000000000003
3.205
3.1205
3.4455
3.3215
3.021
3.0780000000000003
3.458
2.883
3.162
11588:
3.6465
3.8515
4.0365
4.082
4.072
3.2955
3.965
4.0235
3.4885
3.6900000000000004
11589:
4.4925
4.046
4.1075
3.895
3.6955
4.1354999999999995
4.2415
4.3535
4.0785
1159:
3.0835
3.406
3.1495
3.0165
3.404
3.289
3.877
3.38
3.4945000000000004
3.6845
3.6420000000000003
11590:
3.6545
3.7954999999999997
3.373
3.5945
3.8529999999999998
3.7445
3.8045
4.054
3.6845
3.8405
3.7279999999999998
3.783
3.9485
3.6185
3.6630000000000003
3.9974999999999996
3.2155
4.0055
3.738
3.899
3.9775
3.9585
3.713
4.043
4.0155
3.5875
3.1765
3.342
3.9154999999999998
3.6285
3.849
4.4155
3.7489999999999997
3.7995
3.8739999999999997
3.739
3.9059999999999997
3.904
3.8095
3.7435
3.877
3.9539999999999997
3.8045
3.7605
3.9610000000000003
3.517
4.0135
3.7405
3.6355
3.7835
3.822
3.442
3.544
3.8845
3.582
4.3045
3.6799999999999997
3.9154999999999998
4.1375
3.8145
3.7
3.752
3.4154999999999998
3.6085000000000003
3.9154999999999998
3.419
3.5404999999999998
3.6985
4.0265
3.575
3.8635
3.7489999999999997
3.464
11591:
3.668
3.3970000000000002
3.601
3.1935000000000002
3.535
3.718
11592:
3.1045
3.5919999999999996
3.254
3.3255
3.4219999999999997
11593:
2.8185
2.961
3.4219999999999997
3.543
3.4924999999999997
3.6905
11594:
2.963
3.6585
3.383
3.463
2.9945000000000004
3.3145
3.4895
3.3265000000000002
3.463
3.108
3.106
3.7965
3.121
3.258
3.183
3.263
3.2430000000000003
3.781
3.077
3.398
3.1340000000000003
3.463
3.0975
11595:
3.021
3.2175000000000002
2.8645
3.149
3.3545
3.3265000000000002
3.2984999999999998
3.1395
3.8825000000000003
3.877
3.3505000000000003
3.572
3.6340000000000003
3.271
3.136
3.2119999999999997
3.1545
3.348
2.7865
11596:
3.7255
11597:
3.6079999999999997
3.4455
3.243
3.31
3.5969999999999995
3.261
3.7305
3.096
3.4290000000000003
3.4530000000000003
3.5244999999999997
3.394
11598:
3.8715
3.504
3.701
2.8265000000000002
116:
3.464
3.7005
3.6975
3.497
4.2695
3.508
3.1135
3.1825
3.571
3.4695
3.7199999999999998
3.508
3.326
3.3485
3.6765
3.484
3.3945
4.039
3.2995
3.287
3.3105
3.097
3.4885
3.466
3.4560000000000004
3.5675
3.583
3.7975000000000003
3.664
3.707
3.4530000000000003
3.5115
3.0195
3.8085000000000004
3.1965000000000003
3.5570000000000004
3.3205
3.208
3.5705
3.532
3.7935
3.3645
3.436
3.726
3.531
3.3495
3.1765
3.1980000000000004
3.4695
3.4779999999999998
3.3994999999999997
3.282
3.7495000000000003
3.3635
3.8390000000000004
3.508
3.599
3.6065
3.4160000000000004
3.0835
3.5015
3.76
4.2695
3.6654999999999998
3.8695000000000004
3.465
3.4785000000000004
3.733
3.7365000000000004
2.9695
3.649
3.7225
3.9005
3.4575
3.3865
3.2695
3.568
3.205
3.278
3.609
3.481
3.633
3.4000000000000004
3.7695
3.62
3.194
2.9915000000000003
3.5455
3.675
3.7205000000000004
3.1029999999999998
3.6215
3.213
3.4154999999999998
3.6075
3.6945
3.7270000000000003
3.5285
3.3695000000000004
3.254
3.399
3.325
3.0665
3.3865
3.7815000000000003
3.2990000000000004
3.5925000000000002
4.2695
3.9095000000000004
3.555
1160:
3.74
3.7104999999999997
4.034
3.3725
3.676
3.4204999999999997
3.6195
3.9204999999999997
3.306
3.1814999999999998
3.8665000000000003
3.509
2.9725
3.5999999999999996
3.6025
3.8665000000000003
2.811
3.6310000000000002
4.016
3.65
3.551
3.553
3.787
4.1834999999999996
3.6025
3.325
3.293
3.4965
3.936
3.768
3.474
4.028
3.4815
3.6615
3.344
3.6265
3.7175000000000002
3.51
3.9429999999999996
3.724
3.4124999999999996
3.5315
4.1545
3.6485
3.2945
3.6135
3.88
3.5694999999999997
3.8905000000000003
4.019
4.2
3.8514999999999997
3.806
3.857
3.864
3.6544999999999996
3.843
3.8665000000000003
3.4
3.583
3.5965
3.822
3.9654999999999996
3.525
3.5335
3.8135000000000003
3.7
3.487
3.8775000000000004
3.8579999999999997
3.84
3.825
4.116
3.442
3.7859999999999996
3.822
3.75
3.7960000000000003
3.25
3.7885
3.7270000000000003
4.0955
3.8145
3.8499999999999996
3.9014999999999995
3.9859999999999998
3.7779999999999996
3.3739999999999997
3.9299999999999997
3.4509999999999996
3.7110000000000003
3.5655
3.485
3.931
3.356
3.8695000000000004
3.9885
3.8034999999999997
3.676
3.8724999999999996
3.7
3.718
3.575
3.825
4.2
3.7485
3.5469999999999997
3.6905
3.7165
3.41
3.3905
3.5845000000000002
4.007
3.2515
3.8804999999999996
3.8125
3.761
3.6390000000000002
3.7279999999999998
3.825
3.979
3.6825
3.0475
3.8084999999999996
3.3465
3.573
3.9000000000000004
3.9725
4.0465
3.5220000000000002
3.593
4.2
3.752
3.2584999999999997
3.4465
11600:
2.7945
3.424
11601:
3.4105
3.6630000000000003
3.2845
3.3529999999999998
3.917
3.8255
3.017
3.792
11602:
3.1929999999999996
3.2725
2.9725
11604:
3.864
3.214
3.6814999999999998
3.8514999999999997
3.706
3.4395
3.8425000000000002
3.7424999999999997
3.6425
3.6425
3.713
3.5925000000000002
3.5629999999999997
3.479
3.4465000000000003
3.6799999999999997
3.925
3.5815
2.9955
3.5925000000000002
3.4495
3.716
3.909
3.6639999999999997
3.6055
3.473
3.4065000000000003
3.7835
3.8425000000000002
3.662
3.6555
3.476
3.3674999999999997
2.959
3.4495
3.782
3.2655000000000003
3.4675000000000002
3.5925000000000002
3.9705000000000004
3.628
3.7359999999999998
3.8200000000000003
3.3585000000000003
3.1425
3.7115
4.0165
4.1645
4.0015
3.674
3.3715
3.3705
3.725
3.403
3.524
3.5395000000000003
3.4635
3.834
4.0925
3.6865
3.584
3.8425000000000002
3.6535
3.633
3.792
3.607
3.5425
3.818
3.2800000000000002
4.28
3.5549999999999997
3.713
3.426
3.7355
3.7495000000000003
3.8979999999999997
3.6605
3.644
3.435
3.513
3.4815
3.533
3.385
3.1855
3.8425000000000002
3.8425000000000002
3.6205
3.4725
3.2455
3.5265
3.6865
3.6340000000000003
3.6795
3.9275
11606:
3.2295
3.3449999999999998
3.6784999999999997
3.448
3.6624999999999996
3.3935
3.809
3.4475
3.1875
3.739
3.645
3.286
3.0389999999999997
3.4915000000000003
3.4975
3.6755
3.3865
3.356
3.2809999999999997
3.2165
3.3975
3.5945
3.365
3.541
3.3365
3.573
3.5275
3.6145
3.6470000000000002
3.298
2.8985000000000003
3.371
3.6189999999999998
11607:
4.1835
4.132
3.9865
4.053
4.0055
4.088
4.6530000000000005
4.003
4.0695
3.984
3.873
4.438000000000001
4.0375
4.038
3.967
3.9139999999999997
3.9385000000000003
3.7984999999999998
4.277
4.0045
3.7015000000000002
3.7155
3.9175
3.8195
4.248
4.0975
4.0365
3.7875
4.3675
3.9939999999999998
4.244
4.385
3.253
4.2585
4.0265
3.8289999999999997
4.0235
4.068
3.803
4.2795000000000005
4.0635
3.403
4.0295000000000005
4.0695
4.0695
4.034
3.8195
4.231
4.1845
4.3805
4.0065
4.2585
3.5445
4.288
3.6125
3.935
3.9555
4.23
4.3195
4.0425
4.1
3.7335000000000003
3.9965
4.0045
3.499
4.2364999999999995
4.0565
4.4030000000000005
3.51
4.1015
4.165
4.2364999999999995
4.399
4.249499999999999
3.872
3.968
4.1635
4.025
4.384
3.915
3.6905
3.8085
4.353
4.1530000000000005
3.9865
4.1530000000000005
3.653
3.7455
3.9725
3.3405
3.8565
3.403
3.971
3.862
3.753
4.4030000000000005
4.4030000000000005
3.8765
4.379
4.273
4.179
3.8615
3.8635
3.6195
4.053
3.915
4.088
4.056
3.9625000000000004
3.7195
3.8195
3.8275
4.266500000000001
3.4865
3.6845
4.08
4.3195
4.1315
4.0515
4.085
3.7155
3.865
3.9299999999999997
3.811
3.5460000000000003
4.046
3.8815
4.0215
4.3675
3.8565
3.9445
4.431
4.454000000000001
4.0575
3.633
4.0225
4.0515
4.103
3.737
3.793
4.0655
4.0120000000000005
3.7640000000000002
3.653
4.0495
3.903
4.2245
3.653
4.0545
3.8865
3.9565
4.1635
4.062
3.9825
3.832
3.8795
4.181
3.792
4.029
4.1715
4.3505
4.045
3.5195
3.653
4.0280000000000005
4.1605
4.4864999999999995
4.0935
3.9195
3.8555
4.01
3.653
4.2219999999999995
3.842
3.7895000000000003
4.2895
3.9945
3.677
3.694
4.1195
4.0280000000000005
3.9355
3.948
4.006
3.824
3.9445
3.9690000000000003
3.9865
4.079
4.1530000000000005
4.053
4.077
4.393000000000001
3.803
3.733
4.247
3.8295000000000003
4.0355
4.1530000000000005
4.0225
4.172000000000001
3.9865
4.0954999999999995
3.9924999999999997
3.996
3.935
4.364
3.91
3.7895000000000003
3.6870000000000003
4.01
4.447
4.2245
4.1530000000000005
4.0035
4.0329999999999995
3.8405
4.1845
3.8600000000000003
4.0395
3.803
4.3469999999999995
3.8195
4.2780000000000005
3.778
4.2855
4.0215
3.903
3.7155
4.068
3.9699999999999998
4.140000000000001
3.9865
3.4265
3.85
3.92
3.778
3.903
3.8295000000000003
4.2245
4.0155
3.4605
3.872
3.8585000000000003
4.015000000000001
3.9795
4.3865
4.3309999999999995
4.102
4.069
4.1530000000000005
3.653
4.173500000000001
4.4345
3.8529999999999998
4.6530000000000005
4.0695
4.343999999999999
3.7030000000000003
4.6530000000000005
4.292
3.903
4.6530000000000005
3.7445
4.1530000000000005
4.0125
4.0995
3.6745
3.8225
3.8475
4.4864999999999995
4.2780000000000005
4.036
4.1315
4.6530000000000005
3.802
3.7720000000000002
4.0015
3.4865
4.099
3.9495
3.723
4.1145
4.1065000000000005
3.9825
3.84
4.032
3.8475
3.935
3.91
4.1065000000000005
4.250500000000001
2.653
4.23
4.0815
3.778
4.0760000000000005
4.3195
3.6115
4.253
3.9865
3.278
4.6530000000000005
3.824
4.384
3.7640000000000002
4.0695
3.512
3.787
4.0595
3.9375
4.297499999999999
4.02
4.46
4.1295
3.931
3.983
3.909
4.2245
3.912
4.01
3.995
3.7835
3.9764999999999997
3.7085
4.232
4.0635
4.0035
4.1985
4.4990000000000006
4.0355
4.4030000000000005
3.9385000000000003
4.3454999999999995
3.9365
3.8455
4.0065
3.9000000000000004
4.109
3.944
4.1530000000000005
4.3675
3.94
4.1530000000000005
3.903
3.375
3.9059999999999997
3.6945
3.7435
4.2155000000000005
3.403
4.0649999999999995
4.6530000000000005
3.574
3.916
4.0355
4.6530000000000005
3.9415
3.875
4.053
4.1365
4.2940000000000005
4.0489999999999995
4.006
3.653
3.8195
4.074
4.0115
3.9530000000000003
3.755
4.5280000000000005
3.725
3.7960000000000003
4.138
4.2780000000000005
3.6005000000000003
4.1305
3.5905
3.431
4.0184999999999995
3.9115
4.4864999999999995
3.9865
3.947
3.6
4.0295000000000005
3.8885
4.096
4.1265
3.9455
3.9255
3.9625000000000004
4.0545
4.3195
3.8575
4.0815
3.606
4.0675
4.1530000000000005
3.8529999999999998
3.503
4.2844999999999995
3.903
3.811
3.893
3.903
3.9655
4.232
3.8975
4.4655000000000005
4.1530000000000005
3.8885
4.1530000000000005
4.3675
4.1530000000000005
3.8505000000000003
3.873
4.193
3.959
3.9205
3.697
4.0120000000000005
3.431
3.674
4.042
4.2875
4.212
4.011
4.2695
4.1835
4.1835
3.9939999999999998
4.4315
3.85
3.9210000000000003
3.8625
4.042
4.1530000000000005
3.887
3.936
4.304
3.5825
3.9690000000000003
4.1114999999999995
3.5475000000000003
3.7245
4.2780000000000005
3.9355
4.0375
3.653
4.0280000000000005
4.0280000000000005
3.7880000000000003
4.6530000000000005
3.866
3.9139999999999997
4.123
3.3674999999999997
3.85
3.9545000000000003
4.1075
3.9255
4.0645
3.875
4.1530000000000005
4.003
3.5135
4.125
3.7365
4.0760000000000005
3.8805
3.9655
3.9844999999999997
3.9675000000000002
3.928
3.838
3.8325
4.221
3.6715
3.8155
3.9575
4.5280000000000005
3.332
3.7344999999999997
3.7935
3.8475
3.3970000000000002
3.9295
3.8575
4.245
3.875
3.7855
3.8335
4.4030000000000005
4.119
4.1195
3.931
4.1530000000000005
4.381
3.653
3.8255
4.0489999999999995
4.6530000000000005
3.7055
4.4085
4.279
4.3195
4.2780000000000005
3.9615
3.8545
4.1475
4.3195
3.9245
4.191
3.7365
4.4365000000000006
3.7095000000000002
4.2245
3.875
4.2780000000000005
3.746
3.903
4.053
4.2364999999999995
4.3294999999999995
3.7855
4.264
4.0655
3.99
4.0465
4.3195
4.0385
4.0745000000000005
3.6029999999999998
3.99
4.166
4.1530000000000005
4.6530000000000005
3.653
3.545
4.1530000000000005
4.6530000000000005
3.801
4.0225
3.734
3.8615
3.7065
4.257
4.101
3.8810000000000002
4.2364999999999995
4.1305
4.6165
3.859
3.931
3.98
4.1705000000000005
4.253
3.8120000000000003
3.4605
4.007
3.9375
3.8195
3.8765
3.87
3.8805
4.1530000000000005
4.1165
3.9684999999999997
4.4030000000000005
4.1884999999999994
3.9865
4.0329999999999995
3.803
4.2075
3.778
3.6945
3.1415
3.8689999999999998
4.1370000000000005
4.0795
4.1530000000000005
3.9975
4.266
3.7675
3.8440000000000003
3.91
3.622
4.23
4.007
3.8385
3.653
4.207
3.9530000000000003
3.907
3.7085
3.9655
4.3245000000000005
3.8455
4.0205
3.908
3.9844999999999997
3.8705
4.0365
4.0055
4.0825
4.1530000000000005
3.903
3.8890000000000002
4.390000000000001
3.6145
4.114
3.7065
4.1530000000000005
3.8195
4.102
4.0905000000000005
4.566
4.062
4.4465
4.0280000000000005
3.4625000000000004
3.5115
3.6895
4.6530000000000005
4.1915
4.147
4.0344999999999995
4.0865
4.1175
4.1195
3.9074999999999998
3.9655
3.4865
4.062
3.8615
3.9355
3.8315
4.1295
4.0184999999999995
3.9755000000000003
4.116
3.7995
3.8195
3.7960000000000003
3.903
3.901
4.6530000000000005
4.2105
3.8674999999999997
4.4030000000000005
4.3625
3.9074999999999998
4.0745000000000005
3.9234999999999998
3.7085
3.8475
3.9865
3.882
4.4864999999999995
3.8785
3.9655
3.9290000000000003
4.0695
3.8840000000000003
4.1530000000000005
4.0015
4.0685
4.3385
4.4215
4.21
4.4864999999999995
4.058
4.3149999999999995
3.513
3.5815
4.3469999999999995
3.8315
3.8475
3.778
4.3805
4.122
3.915
4.166
3.653
4.1114999999999995
4.1530000000000005
3.583
4.0815
4.6530000000000005
3.85
4.0735
4.078
4.114
4.431
3.903
4.292
3.8805
4.018
4.0305
4.3260000000000005
4.1185
4.1274999999999995
4.217499999999999
4.053
3.795
4.1530000000000005
3.936
3.8315
4.266500000000001
4.0225
4.26
4.132
3.431
4.017
3.968
4.11
3.9955
3.8095
4.532500000000001
3.7670000000000003
3.7904999999999998
4.018
3.5515
4.053
3.5885
4.297499999999999
4.0595
3.499
4.0915
3.9435000000000002
4.2085
4.1530000000000005
3.9575
4.128
4.0195
4.205500000000001
4.3635
3.8575
4.2780000000000005
4.3100000000000005
3.9105
4.371
4.138
4.1065000000000005
3.7560000000000002
3.576
3.7245
3.903
3.903
4.202999999999999
4.6530000000000005
4.078
3.7895000000000003
4.103
3.8005
3.8970000000000002
3.6745
4.245
4.345000000000001
3.6145
4.226
4.089
3.9555
3.9865
3.8145
4.057
3.718
3.9865
3.9865
3.919
4.084
3.5164999999999997
3.882
3.8575
4.497
4.2245
4.1225000000000005
4.106
3.9585
3.8810000000000002
3.996
3.5700000000000003
3.7245
3.903
3.4185
3.7865
3.576
4.1215
4.1185
4.211
4.031
0.95
