...
----------------------------------------------------------------------
Ran 3 tests in 0.000s

OK
Name             Stmts   Miss Branch BrPart  Cover   Missing
------------------------------------------------------------
Netflix.py          58      3      8      1    94%   25-28, 21->25
TestNetflix.py      23      0      0      0   100%
------------------------------------------------------------
TOTAL               81      3      8      1    96%
