....
----------------------------------------------------------------------
Ran 4 tests in 0.001s

OK
Name             Stmts   Miss Branch BrPart  Cover   Missing
------------------------------------------------------------
Netflix.py          41      2      6      1    94%   23-24, 22->23
TestNetflix.py      26      0      0      0   100%
------------------------------------------------------------
TOTAL               67      2      6      1    96%
