10040:
3.33
3.21
3.58
1:
3.66
3.52
3.61
4.20
3.69
3.79
3.54
3.68
3.86
3.63
3.13
3.61
3.91
3.84
3.23
3.96
3.75
4.10
3.91
3.93
3.38
4.37
3.58
10:
3.29
3.16
1000:
3.43
3.25
3.14
4.14
3.60
3.56
3.47
3.78
3.35
3.21
3.46
3.63
3.44
3.96
3.77
3.33
3.32
3.33
3.41
3.64
3.64
3.77
2.99
3.34
3.84
3.36
3.62
10000:
3.65
3.75
10001:
3.63
3.98
3.77
3.19
3.90
3.51
3.55
3.80
3.81
3.22
3.91
3.91
3.30
3.93
3.72
3.80
4.03
10002:
3.97
3.49
4.19
3.83
10003:
2.80
10004:
4.37
3.88
4.0
3.8
4.18
4.00
4.06
3.95
3.98
3.95
3.88
3.76
3.97
3.72
4.60
4.13
4.05
4.05
4.15
4.35
3.96
3.85
3.72
3.91
4.49
3.75
3.92
4.02
3.43
4.15
4.11
10005:
3.60
3.83
3.39
3.32
3.62
10006:
3.70
3.41
3.80
3.16
10007:
2.87
3.23
3.03
2.96
2.85
3.10
2.93
3.26
3.03
3.22
2.96
3.20
3.05
10008:
4.17
3.50
3.57
3.31
3.93
3.81
3.80
10009:
3.64
3.53
4.11
3.12
3.04
3.48
1001:
3.40
3.56
3.74
3.31
3.87
3.80
3.66
3.64
3.13
3.63
3.61
3.86
3.23
3.65
3.49
3.45
3.80
3.70
3.25
3.40
3.40
3.64
3.45
3.17
3.56
3.23
3.60
3.62
3.79
3.84
3.63
4.15
3.27
3.53
3.45
3.54
3.83
3.15
3.49
3.66
3.78
3.30
3.61
3.79
3.84
3.71
3.51
3.32
3.39
3.83
3.38
2.89
3.05
3.57
3.85
3.88
3.58
3.44
3.53
3.37
3.50
3.35
3.33
3.23
3.84
3.37
3.19
3.29
3.79
3.52
3.23
3.44
3.56
3.30
2.90
3.66
3.10
3.02
3.61
3.56
3.90
3.78
3.06
3.21
3.54
3.39
3.47
3.89
3.47
3.28
3.82
3.51
3.48
3.69
3.35
3.11
3.35
4.15
3.44
3.78
3.54
3.65
3.32
3.31
3.37
3.51
3.63
3.76
3.62
3.12
3.31
3.47
3.49
3.29
3.49
2.99
3.30
3.89
3.68
3.32
3.44
3.53
3.58
3.53
3.41
3.43
3.32
3.59
3.61
3.46
3.52
3.66
3.60
3.47
10010:
2.95
2.84
2.87
3.28
3.07
2.87
3.00
2.88
2.71
3.05
2.85
2.74
2.91
2.66
3.24
2.85
2.76
3.12
2.43
2.93
2.75
2.67
2.90
10011:
4.07
3.89
10012:
3.36
3.82
3.34
3.36
3.65
3.69
3.04
3.05
3.31
3.48
3.68
3.33
3.38
10013:
3.57
3.33
3.47
3.61
3.46
3.53
3.29
3.59
3.45
3.70
3.15
3.86
3.60
3.49
3.32
3.42
3.17
3.36
3.41
3.17
3.30
3.24
3.40
3.70
3.65
3.33
3.42
3.09
3.32
3.50
3.23
3.36
3.27
3.70
3.40
3.27
3.45
3.79
3.80
3.18
3.87
3.44
3.64
3.71
3.39
3.17
3.42
3.52
3.36
3.59
3.30
3.34
3.58
3.65
3.38
3.04
3.71
10014:
3.22
3.69
3.12
3.78
3.42
10015:
3.71
3.45
3.26
3.59
3.79
3.56
3.85
3.74
3.80
3.67
3.80
3.63
3.51
3.87
3.87
3.58
3.65
3.89
3.55
3.85
4.40
3.88
4.13
3.74
3.40
3.47
4.03
3.66
10016:
2.65
2.75
2.94
3.07
3.61
10017:
3.08
3.49
3.38
10018:
4.06
3.9
3.23
3.33
3.53
3.70
3.63
3.40
3.01
3.85
3.46
3.79
3.32
3.70
3.34
3.72
3.60
3.62
3.51
3.62
4.07
3.32
3.85
3.90
3.51
3.83
3.75
3.74
3.84
3.86
10019:
3.53
2.70
3.69
3.32
3.99
3.93
3.57
3.11
3.71
3.59
4.05
3.28
3.30
3.42
3.70
3.60
3.74
3.63
3.49
4.02
3.70
3.72
3.70
3.59
3.78
3.63
3.35
3.44
3.53
3.70
3.67
3.20
3.70
3.81
3.44
3.83
2.99
3.76
3.79
3.88
3.81
3.92
3.87
3.74
3.92
3.27
3.72
3.90
3.55
3.58
3.38
3.48
3.79
3.45
2.20
3.00
3.14
3.41
4.00
3.46
3.29
3.50
4.14
3.49
3.83
4.20
3.48
4.16
3.60
1002:
3.58
3.15
3.48
3.59
3.22
3.62
3.91
3.02
3.57
3.64
3.90
3.53
3.47
3.33
10020:
3.86
3.90
3.75
3.96
3.78
3.67
3.74
3.97
3.91
3.83
3.80
4.30
3.91
3.63
3.82
3.80
3.98
3.56
3.93
3.63
4.04
3.52
3.73
3.74
3.48
3.08
3.95
10021:
2.82
3.00
3.08
2.88
10022:
2.85
3.42
3.2
3.17
3.51
3.42
2.98
2.99
10023:
3.79
3.76
3.78
3.61
4.23
3.61
3.53
3.74
3.57
3.80
4.03
10024:
3.60
3.80
3.58
3.74
3.60
3.62
3.33
3.43
3.67
3.68
10025:
3.23
10027:
4.12
3.86
3.72
3.69
3.35
3.69
3.53
4.29
3.41
4.10
3.73
3.79
3.91
3.59
3.79
4.16
3.65
3.88
3.94
3.90
3.50
3.72
3.75
3.86
3.97
3.87
4.03
4.10
4.41
4.10
4.13
3.95
3.48
3.75
4.06
3.96
4.23
3.87
3.90
3.62
4.06
4.11
4.37
3.71
3.67
4.09
3.86
3.81
3.96
4.01
3.79
3.99
3.69
3.65
3.58
3.80
3.61
3.63
4.04
3.95
3.70
3.52
4.14
3.49
4.11
4.39
3.56
3.92
3.50
3.98
3.94
3.92
4.07
3.94
4.12
3.84
3.98
3.70
3.31
3.68
4.23
4.28
3.56
3.83
3.87
4.00
3.75
3.89
10028:
3.24
3.36
3.23
3.74
3.98
3.20
3.89
10029:
3.33
3.79
3.78
3.16
10031:
3.45
3.20
3.65
2.99
3.73
3.30
3.13
2.89
3.17
10032:
3.41
4.25
3.93
3.99
3.88
3.23
3.61
3.52
3.75
3.11
3.38
3.95
4.20
3.57
3.93
3.21
3.65
3.56
3.52
3.67
3.43
3.62
3.48
3.55
3.76
3.36
3.30
3.59
4.08
3.44
3.63
3.74
3.92
3.72
3.13
3.84
3.68
3.47
3.54
3.64
3.59
3.66
3.58
3.34
3.52
3.65
3.82
10033:
3.63
3.35
3.00
3.51
3.43
3.09
3.54
3.23
3.54
3.24
3.59
3.40
4.04
3.66
10034:
2.51
3.47
10035:
3.15
4.20
4.12
4.06
4.08
4.08
3.90
3.7
3.63
3.72
3.87
3.81
3.87
3.94
3.79
3.81
3.90
4.04
3.99
4.47
10036:
3.91
3.53
3.63
3.49
3.80
3.81
3.35
3.72
3.27
3.38
3.41
3.67
3.91
3.82
4.16
3.86
3.68
3.84
3.14
3.39
3.73
3.53
4.34
3.82
3.66
3.96
3.79
3.87
3.87
3.35
3.63
3.40
3.34
3.50
3.31
3.60
3.74
3.72
3.61
3.85
3.54
3.66
3.99
3.77
3.83
3.94
4.14
4.41
3.43
3.89
3.50
3.78
3.64
3.32
3.66
3.74
3.65
4.30
3.62
3.88
3.74
4.03
3.47
4.08
3.38
4.11
3.75
3.66
3.77
3.86
4.19
3.91
3.81
3.51
3.77
3.95
3.96
3.47
3.93
3.91
3.74
3.70
4.13
3.88
3.24
3.75
3.59
3.80
3.83
3.52
3.16
3.98
3.62
3.93
3.63
3.49
3.48
3.81
3.59
3.92
3.92
3.27
3.61
4.09
3.64
3.31
4.28
3.46
3.69
3.79
3.76
3.54
3.56
3.66
3.58
3.70
4.16
3.55
3.64
3.82
3.71
3.76
3.84
3.70
3.82
3.46
3.77
4.12
3.66
3.52
4.01
3.44
3.48
4.41
3.68
3.48
3.85
3.71
3.95
3.33
4.10
3.96
3.74
3.69
3.43
4.21
3.52
3.79
3.56
3.55
4.00
3.81
3.91
3.65
3.62
3.58
4.26
3.83
3.68
4.06
3.90
3.66
3.82
3.89
3.70
3.70
3.88
4.04
3.92
3.60
3.55
3.61
3.94
3.67
3.83
3.82
3.62
3.90
3.81
4.06
3.69
4.05
3.47
3.77
4.21
3.65
3.69
3.51
3.86
3.71
3.62
3.49
3.81
4.17
3.90
3.37
3.69
3.97
3.42
3.75
3.72
3.74
3.57
3.84
3.34
4.32
3.72
4.11
3.91
3.64
3.63
3.57
4.04
3.66
3.58
10037:
3.77
3.25
3.44
3.70
3.61
3.65
3.39
3.10
3.46
3.65
3.47
3.44
3.44
3.46
10038:
3.88
3.41
3.32
3.40
3.31
3.55
3.55
3.21
10039:
2.58
1004:
2.95
2.80
3.32
3.13
3.31
3.27
3.02
3.61
2.88
3.27
3.36
3.47
3.48
3.52
3.07
2.88
3.21
3.31
3.12
3.23
3.29
3.52
3.52
2.57
3.02
2.83
3.24
3.26
3.10
3.26
3.02
10040:
3.33
3.21
3.58
10041:
3.87
3.25
3.43
3.14
3.32
3.28
3.67
3.29
2.29
3.16
2.04
3.47
3.69
2.94
3.39
3.44
3.35
3.09
3.23
2.99
3.22
3.41
3.23
3.33
3.47
2.97
3.39
2.99
3.36
3.01
3.43
10042:
4.18
3.82
4.13
3.91
4.10
4.62
4.41
4.04
4.42
4.00
4.20
4.00
4.29
4.08
4.15
4.28
3.75
4.50
4.39
4.18
4.75
4.34
3.68
4.1
4.17
4.43
4.37
3.58
4.24
4.18
4.27
4.23
4.14
4.31
4.25
4.47
4.15
4.50
4.04
3.81
4.20
4.04
4.02
3.95
4.50
4.36
4.15
3.92
4.15
3.89
3.98
4.32
4.43
3.25
4.60
4.38
3.73
4.20
3.83
4.05
4.13
4.22
4.16
4.15
3.70
3.81
4.02
4.61
4.18
3.96
3.96
4.17
4.16
3.98
3.75
4.42
4.33
4.09
4.12
4.25
3.87
4.45
4.19
4.12
4.37
3.97
4.43
4.24
3.81
4.42
3.98
4.19
4.72
4.07
4.10
4.05
3.96
4.15
4.15
4.00
4.28
4.31
3.83
4.52
4.27
4.05
4.11
4.13
4.51
4.21
4.40
4.15
4.20
4.30
4.06
4.14
4.16
3.92
4.18
4.44
3.88
4.44
4.08
4.50
4.25
4.61
3.82
3.98
4.18
3.92
3.97
4.16
4.11
3.20
4.07
4.14
4.48
4.62
3.92
4.75
4.07
4.52
4.09
3.80
4.19
4.05
4.20
3.71
3.95
4.28
3.98
4.21
4.60
4.14
4.28
3.80
4.01
3.74
3.85
4.25
3.80
4.38
4.14
4.20
3.87
4.35
4.01
3.98
4.06
4.14
4.35
4.35
3.91
4.16
4.33
4.00
4.26
4.44
4.57
4.01
4.13
4.75
4.66
4.00
4.17
4.45
3.96
3.78
4.05
4.33
3.97
4.11
4.28
3.87
4.34
4.48
4.35
4.10
4.15
4.13
4.25
4.33
4.18
4.25
4.23
3.45
4.25
4.19
4.20
4.01
3.95
4.03
4.42
4.39
4.46
4.32
4.62
4.25
4.11
4.26
4.11
4.27
4.39
4.33
4.18
4.23
4.33
3.98
4.50
4.1
4.15
4.17
4.34
4.75
4.43
4.08
4.75
3.95
4.40
4.14
3.96
4.50
4.41
4.30
4.25
4.64
4.53
4.30
4.11
4.22
3.77
4.10
4.51
4.08
3.96
4.60
3.97
4.27
4.26
3.86
4.10
4.25
4.01
4.44
3.74
4.06
4.43
4.27
4.18
4.01
4.13
4.37
4.09
3.95
4.55
3.92
4.15
4.11
4.46
4.27
4.12
3.97
4.29
4.02
4.23
4.03
4.07
4.35
4.01
4.22
4.23
3.87
4.26
3.96
3.95
3.90
4.05
4.27
4.02
4.06
4.28
4.16
4.19
4.19
3.84
4.14
4.10
4.39
4.24
4.02
4.13
4.19
4.75
4.22
4.11
4.44
4.25
4.36
4.32
4.01
4.25
4.03
4.33
4.26
4.38
4.29
4.34
4.18
4.40
4.12
4.35
4.75
3.82
4.30
4.00
4.28
4.39
4.59
4.01
4.37
4.36
4.48
4.35
4.68
3.95
4.24
4.27
4.43
3.99
4.37
4.46
4.00
4.31
4.20
3.90
4.21
4.36
4.31
4.02
4.25
3.99
3.99
4.11
4.17
4.13
4.02
3.88
4.00
4.50
4.58
4.55
4.12
4.09
4.03
4.22
4.51
3.81
3.72
4.21
4.25
4.13
4.17
3.84
4.11
4.00
4.32
4.16
4.03
3.91
4.14
4.15
4.00
4.14
3.84
3.94
4.52
4.15
3.98
4.09
4.11
4.08
4.06
3.91
3.99
4.11
4.14
4.25
4.09
3.75
4.30
4.38
3.91
4.19
4.10
4.75
4.21
3.91
4.45
4.15
3.83
4.60
4.14
4.21
4.44
4.19
4.01
4.33
4.48
4.37
4.10
4.01
4.35
3.89
4.16
4.58
3.82
4.07
3.5
4.00
4.75
4.75
4.38
4.15
4.14
4.44
4.47
4.47
4.29
4.04
3.90
4.02
4.37
4.41
4.32
4.42
4.36
3.93
4.22
3.90
4.33
4.18
4.12
4.08
3.90
4.65
4.14
4.51
4.43
4.24
4.51
4.28
4.10
3.97
4.40
4.33
4.33
4.22
4.45
3.95
3.84
4.18
4.23
4.05
3.89
4.75
4.00
4.75
4.13
4.27
3.97
4.11
4.00
3.86
4.15
4.11
4.28
4.06
4.18
4.15
3.95
4.10
3.90
4.10
3.90
3.91
4.41
4.22
4.29
3.85
4.17
4.13
4.31
4.19
4.06
4.30
4.32
4.53
4.69
3.96
4.08
4.29
3.97
3.92
4.08
4.53
4.25
4.10
3.72
3.68
4.47
4.30
3.91
4.18
4.27
4.43
4.02
4.53
4.52
4.33
4.12
3.92
4.34
4.26
4.13
4.37
4.75
3.77
4.55
4.61
4.14
4.02
3.59
4.39
2.75
4.06
4.30
4.13
3.99
3.94
4.48
4.12
3.87
4.27
4.11
4.26
4.35
4.04
3.89
4.14
3.75
4.18
3.47
3.84
4.38
3.93
4.44
4.13
3.75
4.11
4.13
4.58
3.93
4.09
3.98
4.21
4.25
4.45
4.56
4.39
4.05
4.05
4.15
3.92
3.98
3.76
4.11
4.21
4.24
4.03
3.89
4.15
4.39
4.14
4.06
3.73
4.23
4.05
4.07
4.43
3.86
3.99
3.92
4.75
4.28
3.94
4.02
3.75
4.53
4.30
3.95
3.87
4.10
4.21
3.98
3.82
4.15
3.79
3.74
4.20
4.05
4.17
4.27
4.17
4.01
4.11
3.91
4.53
4.15
4.07
4.52
4.09
3.89
4.22
4.19
4.30
4.28
4.52
4.04
4.09
4.05
4.12
4.13
4.15
4.26
4.35
4.27
4.08
4.50
4.05
4.19
3.65
4.43
3.77
4.02
4.27
4.36
4.09
3.90
4.06
4.18
4.12
3.99
4.30
4.40
4.52
4.22
3.85
4.18
4.12
3.99
4.40
4.02
4.27
3.86
4.10
4.03
4.05
4.75
4.03
4.07
4.02
4.39
4.12
4.06
4.13
4.21
4.22
4.31
4.13
4.12
4.52
3.53
4.25
4.22
4.25
4.31
4.08
3.98
3.97
4.12
4.09
3.93
4.17
4.33
4.21
4.35
4.24
4.25
4.53
4.22
3.90
4.36
4.46
4.22
3.84
3.97
4.19
3.58
3.87
3.91
4.16
4.03
4.39
3.95
4.39
4.29
4.04
4.09
4.75
4.00
4.12
4.11
3.78
4.27
4.16
4.12
4.34
4.27
4.26
4.46
3.95
4.4
4.41
4.20
4.20
4.50
10043:
3.95
3.90
3.83
4.12
3.79
3.78
3.58
3.89
4.24
3.71
3.97
4.12
3.80
4.25
3.83
3.61
4.09
3.86
3.92
3.69
4.07
4.05
4.01
4.08
3.67
4.02
3.89
4.11
4.06
3.53
3.89
3.91
3.85
3.91
3.95
3.70
3.87
4.11
4.13
3.62
3.21
3.62
3.23
3.82
3.72
3.94
3.77
4.07
3.79
4.02
3.84
3.94
3.71
3.89
3.97
3.69
3.71
3.69
4.05
4.23
3.78
4.02
3.63
3.81
10044:
3.86
3.68
3.46
3.54
3.74
4.04
3.73
3.73
3.40
3.55
3.58
3.29
3.40
3.85
4.15
4.16
4.03
3.28
4.15
3.94
3.59
3.83
3.62
3.87
3.50
3.55
3.31
3.69
3.78
3.82
3.52
3.84
4.03
3.49
3.92
3.68
3.72
3.78
3.59
3.51
3.78
4.28
3.57
3.28
4.00
3.56
0.89
