1:
3.6346
3.46
3.5716
4.2808
3.673
3.7858
3.4858000000000002
3.6555999999999997
3.8728
3.5949999999999998
2.9992
3.5782
3.9375999999999998
3.8512000000000004
3.1222
3.9916
3.7359999999999998
4.159
3.9322
3.9622
3.2985999999999995
4.486
3.5385999999999997
10:
3.2895000000000003
3.1305000000000005
1000:
3.4584666666666664
3.2436666666666665
3.1026666666666665
4.302666666666667
3.6612666666666667
3.6102666666666665
3.5028666666666664
3.8748666666666667
3.3636666666666666
3.1920666666666664
3.4878666666666667
3.6894666666666667
3.4608666666666665
4.093866666666667
3.8676666666666666
3.3396666666666666
3.3192666666666666
3.3354666666666666
3.4326666666666665
3.7026666666666666
3.7026666666666666
3.8670666666666667
2.920866666666667
3.3468666666666667
3.9510666666666663
3.3714666666666666
3.6858666666666666
10000:
3.767
3.8834
10001:
3.5964
4.018199999999999
3.7674000000000003
3.0774
3.9215999999999998
3.4536
3.5106
3.8106
3.8171999999999997
3.1098
3.9318
3.9408000000000003
3.2016
3.9623999999999997
3.7134
3.8064
4.0824
10002:
4.00808
3.42908
4.27628
3.8418799999999997
10003:
2.8944
10004:
4.3444
3.7516000000000003
3.8926000000000003
3.6526
4.1116
3.8962000000000003
3.967
3.8416
3.874
3.8356000000000003
3.7606
3.6052
3.8614
3.5680000000000005
4.618
4.0516000000000005
3.9616000000000002
3.958
4.0726
4.318
3.8524000000000003
3.7144000000000004
3.5668000000000006
3.7870000000000004
4.489599999999999
3.5956
3.7996000000000003
3.9178
3.2182000000000004
4.075
4.032400000000001
10005:
3.3318
3.6096
3.0786
2.997
3.3516
10006:
3.8552
3.5102
3.968
3.2036
10007:
2.9362000000000004
3.3693999999999997
3.1258
3.0490000000000004
2.9122000000000003
3.2122
3.0118
3.412
3.1276
3.3556
3.0460000000000003
3.3358
3.1563999999999997
10008:
4.237
3.4366
3.5188
3.2032000000000003
3.9514
3.808
3.7942
10009:
3.6908
3.5492
4.2446
3.062
2.9642
3.4909999999999997
1001:
3.2623333333333333
3.4531333333333336
3.660733333333333
3.1489333333333334
3.8251333333333335
3.735733333333333
3.5713333333333335
3.5461333333333336
2.929333333333333
3.539533333333334
3.5077333333333334
3.804733333333333
3.0493333333333332
3.562333333333333
3.370333333333334
3.3145333333333333
3.733933333333333
3.6139333333333337
3.0835333333333335
3.2623333333333333
3.2623333333333333
3.5443333333333333
3.318133333333333
2.986933333333333
3.4513333333333334
3.0523333333333333
3.4939333333333336
3.526933333333333
3.7261333333333333
3.786133333333334
3.531133333333333
4.162333333333334
3.1063333333333336
3.408733333333333
3.3121333333333336
3.4273333333333333
3.776533333333333
2.9623333333333335
3.3625333333333334
3.564733333333333
3.7099333333333337
3.1399333333333335
3.510133333333333
3.731533333333333
3.786133333333334
3.632533333333333
3.3871333333333338
3.1567333333333334
3.249133333333334
3.7741333333333333
3.232333333333333
2.6473333333333335
2.8423333333333334
3.462133333333333
3.8023333333333333
3.828733333333333
3.470533333333333
3.3091333333333335
3.4159333333333333
3.2233333333333336
3.3769333333333336
3.2023333333333337
3.1765333333333334
3.0541333333333336
3.7873333333333337
3.219733333333333
3.0001333333333333
3.1249333333333333
3.7261333333333333
3.3991333333333333
3.054733333333333
3.3019333333333334
3.4489333333333336
3.1339333333333332
2.6623333333333337
3.5701333333333336
2.8993333333333333
2.7967333333333335
3.5137333333333336
3.4459333333333335
3.862333333333333
3.708733333333333
2.844733333333333
3.0289333333333337
3.430933333333334
3.2467333333333332
3.343333333333333
3.8437333333333337
3.343933333333333
3.1123333333333334
3.7621333333333338
3.394333333333334
3.348133333333333
3.6067333333333336
3.195733333333333
2.9143333333333334
3.198133333333333
4.162333333333334
3.3079333333333336
3.7123333333333335
3.421333333333333
3.562333333333333
3.1621333333333332
3.1501333333333337
3.2263333333333337
3.3937333333333335
3.5323333333333338
3.686533333333333
3.5251333333333337
2.9161333333333337
3.154933333333333
3.3427333333333333
3.3625333333333334
3.1297333333333333
3.3625333333333334
2.7625333333333333
3.138133333333333
3.8473333333333333
3.5881333333333334
3.1639333333333335
3.3049333333333335
3.412933333333333
3.4699333333333335
3.4123333333333337
3.2641333333333336
3.2881333333333336
3.1621333333333332
3.491533333333334
3.515533333333334
3.3259333333333334
3.4021333333333335
3.5689333333333337
3.495733333333333
3.343933333333333
10010:
3.0638
2.9395999999999995
2.9642
3.4652
3.206
2.9744
3.1304
2.987
2.7824
3.1892
2.9432
2.816
3.0193999999999996
2.7169999999999996
3.4135999999999997
2.9414
2.8346
3.2744
2.4416
3.0404
2.8244
2.7325999999999997
3.0067999999999997
10011:
4.0378
3.8217999999999996
10012:
3.301
3.8536
3.2805999999999997
3.298
3.6550000000000002
3.703
2.9248000000000003
2.9362
3.2464
3.4468
3.6892
3.2638
3.3226
10013:
3.580866666666667
3.295866666666667
3.466266666666667
3.6336666666666666
3.4548666666666668
3.5304666666666664
3.244866666666667
3.609066666666666
3.4416666666666664
3.736866666666667
3.077466666666667
3.928866666666667
3.621666666666667
3.483666666666667
3.2850666666666664
3.401466666666667
3.1056666666666666
3.3258666666666663
3.3924666666666665
3.099066666666667
3.2628666666666666
3.178866666666667
3.3726666666666665
3.7416666666666663
3.6816666666666666
3.297066666666667
3.4038666666666666
3.0042666666666666
3.2850666666666664
3.496266666666667
3.1752666666666665
3.324066666666667
3.223866666666667
3.7320666666666664
3.3756666666666666
3.2214666666666667
3.4386666666666663
3.844266666666667
3.859866666666667
3.108666666666667
3.9462666666666664
3.418866666666667
3.6648666666666667
3.7506666666666666
3.3672666666666666
3.1002666666666667
3.397266666666667
3.5196666666666667
3.3288666666666664
3.600666666666667
3.2586666666666666
3.3036666666666665
3.5910666666666664
3.679266666666667
3.3486666666666665
2.949666666666667
3.7464666666666666
10014:
3.1783
3.7381
3.0475000000000003
3.8491
3.4183
10015:
3.675866666666667
3.3686666666666665
3.1382666666666665
3.534866666666667
3.773066666666667
3.4988666666666663
3.8432666666666666
3.710066666666666
3.7814666666666668
3.625466666666666
3.7826666666666666
3.5882666666666667
3.4412666666666665
3.8696666666666664
3.8696666666666664
3.5270666666666664
3.609866666666667
3.8948666666666663
3.4886666666666666
3.8414666666666664
4.500866666666667
3.880466666666667
4.181066666666666
3.710066666666666
3.3098666666666663
3.3878666666666666
4.059866666666666
3.615266666666667
10016:
2.6206
2.7388000000000003
2.9704
3.1318
3.7768
10017:
3.1162666666666663
3.5998666666666663
3.466666666666667
10018:
4.15116
3.9585600000000003
3.1653599999999997
3.2775600000000003
3.51516
3.7191599999999996
3.6345599999999996
3.36336
2.89416
3.90036
3.4425600000000003
3.8307599999999997
3.2709599999999996
3.7245599999999994
3.29376
3.75096
3.59976
3.63096
3.49596
3.63096
4.17096
3.2709599999999996
3.89856
3.96936
3.49176
3.88056
3.7851600000000003
3.77616
3.8913599999999997
3.9165599999999996
10019:
3.5504999999999995
2.5473
3.7389
3.2919
4.1049
4.0310999999999995
3.5972999999999997
3.0435
3.7676999999999996
3.6182999999999996
4.1709000000000005
3.2487
3.2709
3.4136999999999995
3.7473
3.6362999999999994
3.8007
3.6723
3.5036999999999994
4.1396999999999995
3.7473
3.7725
3.7532999999999994
3.6201
3.8463000000000003
3.6639
3.3350999999999997
3.4376999999999995
3.5474999999999994
3.7473
3.7196999999999996
3.1472999999999995
3.7473
3.8901000000000003
3.4395
3.9032999999999998
2.9019
3.8264999999999993
3.8577000000000004
3.9657
3.8858999999999995
4.0203
3.9524999999999997
3.7988999999999997
4.0173
3.2420999999999998
3.7748999999999997
3.9915000000000003
3.5673000000000004
3.6087
3.3674999999999997
3.4868999999999994
3.8630999999999993
3.4490999999999996
1.9472999999999998
2.9097
3.0753
3.4005
4.1109
3.4628999999999994
3.2553
3.5133
4.2807
3.5061
3.9074999999999998
4.3473
3.4875
4.3011
3.6285
1002:
3.5028000000000006
2.9874
3.3870000000000005
3.5148
3.0708
3.5507999999999997
3.9029999999999996
2.8308
3.495
3.5814000000000004
3.8898
3.4391999999999996
3.3708
3.2039999999999997
10020:
3.799133333333333
3.844733333333333
3.6731333333333334
3.920333333333333
3.7085333333333335
3.5789333333333335
3.6617333333333333
3.938933333333333
3.861533333333333
3.763133333333333
3.7283333333333335
4.333133333333333
3.861533333333333
3.5279333333333334
3.755933333333333
3.7313333333333336
3.9395333333333333
3.4445333333333332
3.884333333333333
3.5279333333333334
4.019333333333333
3.3941333333333334
3.649733333333333
3.6617333333333333
3.341333333333333
2.8613333333333335
3.910733333333333
10021:
3.0089
3.2267
3.3215000000000003
3.0767
10022:
2.7334
3.412
3.142
3.112
3.5248
3.4167999999999994
2.8798
2.899
10023:
3.7994
3.7681999999999998
3.794
3.5822000000000003
4.335800000000001
3.5846
3.4874
3.7472000000000003
3.5396
3.8162
4.0969999999999995
10024:
3.628
3.865
3.6112
3.7942
3.6346000000000003
3.6586000000000003
3.3082000000000003
3.4222
3.7144000000000004
3.7258
10025:
3.3746666666666667
10027:
4.178800000000001
3.8644000000000003
3.6976
3.6682
3.2494000000000005
3.6652000000000005
3.4708
4.3798
3.3298
4.1584
3.7114000000000003
3.778
3.9298
3.547
3.7792000000000003
4.2298
3.6124
3.8890000000000002
3.9634
3.9172000000000002
3.4318
3.7048
3.7324
3.8632
4.003
3.8782
4.0732
4.150600000000001
4.5298
4.1608
4.1932
3.9796000000000005
3.415
3.7372
4.1044
3.9844000000000004
4.3138000000000005
3.8824
3.9124000000000003
3.5842
4.1014
4.1698
4.4788
3.6904000000000003
3.64
4.1446000000000005
3.8716000000000004
3.8116000000000003
3.9898
4.0498
3.7828
4.024
3.6580000000000004
3.6106000000000003
3.5368000000000004
3.7966
3.5656
3.5932000000000004
4.0882000000000005
3.9808000000000003
3.6724
3.46
4.2028
3.4198000000000004
4.1692
4.4992
3.5098000000000003
3.9364000000000003
3.43
4.009
3.9622
3.9424
4.1175999999999995
3.9652000000000003
4.1746
3.838
4.0162
3.6718
3.2032000000000003
3.6562
4.3066
4.3726
3.5056000000000003
3.8356000000000003
3.8836000000000004
4.039000000000001
3.73
3.9016
10028:
3.3948666666666663
3.5418666666666665
3.3882666666666665
3.9960666666666667
4.288266666666667
3.3462666666666667
4.180866666666667
10029:
3.3223333333333334
3.870133333333333
3.8557333333333332
3.1201333333333334
10031:
3.4926
3.1914
3.7284
2.937
3.8297999999999996
3.3102
3.1074
2.817
3.1542
10032:
3.3624
4.3632
3.9834
4.0494
3.924
3.1470000000000002
3.5951999999999997
3.4884
3.7649999999999997
2.9981999999999998
3.324
4.0068
4.3032
3.546
3.9864
3.1158
3.6468
3.5382000000000002
3.4884
3.6732
3.3864
3.6077999999999997
3.4457999999999998
3.5208
3.7818
3.3012
3.2304
3.5736
4.163399999999999
3.3936
3.621
3.7481999999999998
3.9708
3.735
3.0234
3.8771999999999998
3.681
3.4307999999999996
3.5178
3.6348000000000003
3.5789999999999997
3.6522
3.5669999999999997
3.2718
3.4943999999999997
3.6414
3.8472
10033:
3.6914999999999996
3.3537
2.9331
3.5420999999999996
3.4490999999999996
3.0404999999999998
3.5846999999999998
3.2031
3.5846999999999998
3.2169
3.6338999999999997
3.4154999999999998
4.1847
3.7275
10034:
2.5279999999999996
3.6806
10035:
2.9754000000000005
4.2372
4.1454
4.070399999999999
4.0974
4.0938
3.8802000000000003
3.6342
3.5604000000000005
3.6672000000000002
3.8436000000000003
3.7746
3.849
3.924
3.753
3.7692
3.8826
4.0428
3.9834
4.5612
10036:
3.9295999999999998
3.4796
3.5924000000000005
3.4298
3.7964
3.806
3.26
3.6997999999999998
3.158
3.2965999999999998
3.332
3.6398
3.9295999999999998
3.8174
4.2296
3.8696
3.6536
3.8503999999999996
3.0098000000000003
3.3014
3.7154
3.4796
4.4498
3.8204000000000002
3.6296
3.9895999999999994
3.7868000000000004
3.8828000000000005
3.8785999999999996
3.2558
3.5995999999999997
3.3212
3.2486
3.4400000000000004
3.2096
3.5557999999999996
3.7249999999999996
3.6986
3.569
3.8624
3.4916
3.6296
4.0238
3.7616000000000005
3.8396
3.9698
4.206799999999999
4.5296
3.3512
3.9074
3.437
3.7796000000000003
3.6104000000000003
3.2168
3.6331999999999995
3.7298
3.6176000000000004
4.401199999999999
3.5846
3.9002
3.7214
4.0729999999999995
3.4058
4.1342
3.2893999999999997
4.1678
3.7436
3.6296
3.7657999999999996
3.8671999999999995
4.2686
3.9295999999999998
3.8125999999999998
3.4526000000000003
3.7682
3.9757999999999996
3.9913999999999996
3.4046000000000003
3.95
3.9356
3.7298
3.6824000000000003
4.1906
3.8948
3.1298
3.7436
3.5522
3.803
3.8293999999999997
3.4627999999999997
3.0296000000000003
4.013
3.5804
3.9542
3.6007999999999996
3.4244
3.4093999999999998
3.8108000000000004
3.5444000000000004
3.9476000000000004
3.9398
3.158
3.575
4.1438
3.6068
3.2084
4.3766
3.3866
3.6715999999999998
3.782
3.7489999999999997
3.4862
3.5060000000000002
3.6296
3.5384
3.6757999999999997
4.2296
3.4964
3.6026
3.8258
3.692
3.755
3.8516000000000004
3.6782000000000004
3.824
3.3962000000000003
3.7657999999999996
4.1798
3.6296
3.4652000000000003
4.0496
3.362
3.4154
4.5296
3.6542000000000003
3.4088000000000003
3.8642000000000003
3.6925999999999997
3.9757999999999996
3.2348
4.158799999999999
3.9895999999999994
3.7298
3.6632
3.3596
4.2896
3.4616
3.7885999999999997
3.5156
3.4934000000000003
4.034
3.8156
3.9295999999999998
3.6151999999999997
3.5869999999999997
3.5294
4.3532
3.8293999999999997
3.6548
4.1102
3.9164000000000003
3.6296
3.8167999999999997
3.9025999999999996
3.6739999999999995
3.6764
3.8971999999999998
4.0862
3.9463999999999997
3.5629999999999997
3.4939999999999998
3.5744
3.9619999999999997
3.6464
3.8288
3.8179999999999996
3.5881999999999996
3.9151999999999996
3.8132
4.1048
3.6698000000000004
4.1006
3.3974
3.7573999999999996
4.2866
3.6158
3.6673999999999998
3.4496
3.8731999999999998
3.6932
3.5834
3.4298
3.8095999999999997
4.241
3.9158
3.2792
3.6698000000000004
4.0052
3.3434
3.7363999999999997
3.6979999999999995
3.7256
3.518
3.8498
3.2498
4.4204
3.7064000000000004
4.1696
3.9295999999999998
3.6098
3.5911999999999997
3.5204
4.0862
3.6296
3.5324
10037:
3.7795
3.1507
3.3834999999999997
3.6889
3.5905
3.6343
3.3175
2.9707
3.4093
3.6385
3.4201
3.3859
3.3787
3.4063
10038:
3.9584666666666664
3.3920666666666666
3.279866666666667
3.3830666666666662
3.2738666666666667
3.5612666666666666
3.5624666666666664
3.1526666666666667
10039:
2.5704000000000002
1004:
2.9336
2.7572
3.3794000000000004
3.1513999999999998
3.3704
3.314
3.0194
3.7214
2.8478
3.3194
3.4196
3.5594
3.5648
3.6193999999999997
3.0764
2.8478
3.2485999999999997
3.3692
3.1394
3.2665999999999995
3.3452
3.6193999999999997
3.6193999999999997
2.4794
3.0194
2.7878
3.2822000000000005
3.3044000000000002
3.1112
3.3103999999999996
3.0194
10040:
3.3206666666666664
3.1736666666666666
3.617066666666666
10041:
4.005066666666666
3.2520666666666664
3.4686666666666666
3.1260666666666665
3.340866666666667
3.2982666666666667
3.7614666666666667
3.3102666666666667
2.1048666666666667
3.1482666666666663
1.8048666666666668
3.521466666666667
3.7830666666666666
2.8848666666666665
3.426066666666667
3.4848666666666666
3.373866666666667
3.070266666666667
3.2388666666666666
2.9466666666666668
3.219666666666667
3.4458666666666664
3.236466666666667
3.3486666666666665
3.5166666666666666
2.917866666666667
3.430266666666667
2.9454666666666665
3.3864666666666667
2.973066666666667
3.4788666666666668
10042:
4.1772
3.7409999999999997
4.1178
3.849
4.0847999999999995
4.7064
4.4562
4.0026
4.4652
3.9546
4.2042
3.9564000000000004
4.3062000000000005
4.0607999999999995
4.1388
4.2972
3.6563999999999997
4.5564
4.4322
4.173
4.8564
4.3632
3.5747999999999998
4.074
4.1586
4.4784
4.3992
3.4512
4.2492
4.1766
4.281000000000001
4.2408
4.1262
4.3314
4.2564
4.5276
4.1364
4.5564
4.0116
3.7283999999999997
4.1988
4.011
3.9816000000000003
3.8970000000000002
4.5564
4.3944
4.143
3.8616
4.1376
3.8238
3.9378
4.3422
4.4724
3.0564
4.6812000000000005
4.413
3.6324
4.1976
3.759
4.014
4.1171999999999995
4.2276
4.1538
4.1382
3.6024000000000003
3.7295999999999996
3.9791999999999996
4.6962
4.1814
3.9066
3.9155999999999995
4.1652
4.1496
3.942
3.6563999999999997
4.461
4.3524
4.0733999999999995
4.1028
4.2564
3.7998
4.4964
4.1856
4.104
4.3992
3.9294000000000002
4.4772
4.2444
3.7325999999999997
4.4694
3.939
4.1874
4.8294
4.0404
4.0764000000000005
4.0164
3.915
4.1418
4.1411999999999995
3.963
4.3008
4.3314
3.7565999999999997
4.5864
4.2888
4.0254
4.0896
4.1124
4.571400000000001
4.2162
4.4424
4.1358
4.1964
4.3158
4.0332
4.1298
4.149
3.8663999999999996
4.1766
4.4874
3.8129999999999997
4.4838
4.0584
4.5564
4.2564
4.6956
3.738
3.9378
4.1772
3.864
3.9294000000000002
4.1562
4.0938
2.9964
4.044
4.1244
4.539
4.6992
3.8693999999999997
4.8564
4.038
4.59
4.0722
3.7164
4.1838
4.0164
4.1964
3.615
3.8945999999999996
4.3008
3.9395999999999995
4.2168
4.6812000000000005
4.1262
4.2924
3.723
3.9768
3.6504000000000003
3.7824
4.2564
3.7218
4.4148000000000005
4.1316
4.194599999999999
3.8064
4.3824
3.9744
3.9402
4.0356
4.1226
4.3764
4.3782000000000005
3.8538
4.1472
4.359
3.9623999999999997
4.266
4.4892
4.6488
3.9719999999999995
4.1118
4.8564
4.7562
3.9612
4.1598
4.4946
3.9168000000000003
3.6917999999999997
4.0224
4.3608
3.9246
4.0962
4.2996
3.8064
4.368
4.5354
4.3848
4.0842
4.1388
4.1136
4.2564
4.359
4.1814
4.2564
4.239
3.2964
4.2564
4.1838
4.1952
3.9768
3.9041999999999994
3.9966
4.464
4.4268
4.5096
4.348199999999999
4.7064
4.2564
4.0956
4.2714
4.0914
4.2786
4.4244
4.35
4.1706
4.2408
4.3602
3.9341999999999997
4.5564
4.074
4.1453999999999995
4.1598
4.3704
4.8564
4.4718
4.0565999999999995
4.8564
3.9012000000000002
4.4352
4.1262
3.9155999999999995
4.5594
4.4562
4.3254
4.26
4.723199999999999
4.5918
4.3176000000000005
4.0926
4.221
3.6858
4.0847999999999995
4.5738
4.0565999999999995
3.9066
4.6848
3.9281999999999995
4.2852
4.2749999999999995
3.7956000000000003
4.0764000000000005
4.2564
3.9719999999999995
4.4892
3.6444
4.0332
4.4706
4.29
4.1706
3.9714
4.1184
4.401
4.0728
3.9036
4.6164
3.8646000000000003
4.1364
4.095
4.5066
4.2888
4.101
3.9281999999999995
4.3062000000000005
3.9833999999999996
4.2366
3.9978
4.044
4.3764
3.9665999999999997
4.2264
4.2306
3.8064
4.266
3.9155999999999995
3.8964
3.8424
4.0158000000000005
4.2834
3.9863999999999997
4.0338
4.2942
4.1562
4.1856
4.1892
3.768
4.1304
4.0836
4.432799999999999
4.2528
3.9791999999999996
4.1178
4.1886
4.8564
4.2276
4.0872
4.4874
4.2564
4.389600000000001
4.3494
3.9690000000000003
4.2623999999999995
3.9989999999999997
4.3584
4.2738
4.4178
4.3056
4.365600000000001
4.1712
4.4364
4.1064
4.3794
4.8564
3.7409999999999997
4.3206
3.9588
4.2972
4.428
4.662
3.9684
4.4094
4.3884
4.5336
4.3842
4.7796
3.9006
4.251
4.2798
4.4814
3.9425999999999997
4.4094
4.5102
3.9546
4.3296
4.1982
3.843
4.215
4.395
4.329000000000001
3.9804000000000004
4.2564
3.9425999999999997
3.9486
4.0938
4.1652
4.1202
3.9791999999999996
3.8166
3.9564000000000004
4.5564
4.6566
4.614
4.1022
4.0716
0.91
