...
----------------------------------------------------------------------
Ran 3 tests in 0.000s

OK
Name             Stmts   Miss Branch BrPart  Cover   Missing
------------------------------------------------------------
Netflix.py          42      3      6      1    92%   22-25, 17->22
TestNetflix.py      27      0      0      0   100%
------------------------------------------------------------
TOTAL               69      3      6      1    95%
