1:
3.6
3.5
3.6
4.2
3.6
3.7
3.5
3.6
3.8
3.6
3.1
3.6
4.0
3.7
3.1
4.0
3.6
4.2
4.0
4.1
3.4
4.6
3.6
0.79
10:
3.3
3.2
0.25
1000:
3.4
3.3
3.2
4.4
3.6
3.5
3.4
3.9
3.3
3.2
3.4
3.5
3.4
4.1
3.9
3.4
3.3
3.3
3.4
3.8
3.7
3.9
2.9
3.4
4.0
3.4
3.6
1.03
10000:
3.8
3.7
0.87
10001:
3.5
4.1
3.6
3.0
4.1
3.5
3.6
3.7
3.7
3.3
4.0
4.0
3.1
4.1
3.6
3.6
4.1
0.93
10002:
4.1
3.5
4.2
4.0
0.82
10003:
3.1
0.1
10004:
4.4
3.8
3.9
3.7
4.3
3.9
3.9
3.9
3.9
3.9
3.9
3.8
3.9
3.7
4.4
4.1
3.9
3.9
4.2
4.0
3.9
3.8
3.8
3.8
4.5
3.7
3.8
3.9
3.3
4.3
4.2
1.10
10005:
3.5
3.9
3.4
3.3
3.6
1.39
10006:
3.8
3.6
3.9
3.2
1.26
10007:
3.0
3.2
3.0
3.0
3.0
3.1
3.0
3.5
3.1
3.2
3.0
3.1
3.1
1.23
10008:
4.2
3.4
3.5
3.3
4.0
4.0
4.0
0.87
10009:
3.6
3.5
4.1
3.0
2.9
3.5
0.82
1001:
3.8
3.5
3.6
3.4
3.9
3.9
3.8
3.5
3.0
3.6
3.5
3.9
3.3
3.8
3.5
3.4
3.9
3.9
3.3
3.4
3.3
3.6
3.4
3.2
3.5
3.3
3.5
3.5
3.8
4.0
3.6
4.4
3.3
3.5
3.5
3.5
4.0
3.2
3.2
3.8
3.9
3.3
3.5
3.9
4.0
3.8
3.5
3.4
3.4
3.9
3.4
2.8
2.9
3.6
3.9
4.0
3.3
3.5
3.5
3.4
3.5
3.4
3.4
3.3
3.9
3.3
3.3
3.3
3.9
3.5
3.3
3.4
3.5
3.3
3.1
3.8
2.9
3.0
3.5
3.5
3.8
3.9
2.9
3.5
3.5
3.4
3.4
3.9
3.4
3.3
3.9
3.5
3.6
3.8
3.4
3.0
3.4
3.9
3.4
3.7
3.5
3.7
3.3
3.3
3.5
3.5
3.6
3.8
3.6
3.0
3.3
3.4
3.5
3.3
3.5
3.0
3.3
3.9
3.8
3.3
3.4
3.5
3.4
3.5
3.4
3.4
3.3
3.6
3.5
3.4
3.5
3.8
3.5
3.4
0.92
10010:
3.0
2.9
3.0
3.5
3.1
3.0
3.0
3.0
2.8
3.1
2.9
2.9
2.9
2.6
3.5
3.0
2.9
3.1
2.4
3.0
2.8
2.6
2.9
1.23
10011:
3.9
3.8
0.15
10012:
3.4
3.9
3.3
3.4
3.8
3.8
2.9
3.4
3.3
3.4
3.8
3.3
3.3
0.75
10013:
3.5
3.4
3.5
3.6
3.4
3.5
3.4
3.5
3.4
3.9
3.3
3.9
3.4
3.6
3.3
3.4
3.3
3.4
3.5
3.3
3.3
3.2
3.4
3.8
3.8
3.4
3.4
2.9
3.3
3.4
3.4
3.2
3.3
3.9
3.4
3.3
3.5
3.9
3.8
3.2
3.9
3.4
3.7
3.7
3.5
3.2
3.4
3.5
3.3
3.5
3.3
3.4
3.5
3.9
3.4
3.0
3.9
0.93
10014:
3.4
3.9
3.2
3.8
3.4
0.82
10015:
3.7
3.5
3.1
3.6
3.7
3.6
3.8
3.7
3.7
3.5
3.7
3.6
3.5
3.8
3.8
3.5
3.6
3.8
3.6
3.8
4.4
3.8
4.2
3.3
3.4
3.5
4.0
3.6
0.93
10016:
3.0
2.7
2.8
3.2
3.8
1.21
10017:
3.3
3.7
3.4
1.02
10018:
4.2
3.9
3.1
3.4
3.5
3.6
3.6
3.5
2.9
3.9
3.6
3.7
3.7
3.6
3.5
3.6
3.5
3.6
3.5
3.6
3.8
3.4
4.0
4.0
3.5
4.0
3.6
3.7
3.9
4.0
0.81
10019:
3.5
3.1
3.6
3.3
4.1
4.0
3.5
3.0
3.9
3.5
4.1
3.3
3.3
3.4
3.9
3.6
3.9
3.5
3.5
4.1
3.9
3.9
3.9
3.5
3.9
3.6
3.4
3.4
3.4
3.9
3.5
3.5
3.9
3.9
3.4
4.0
2.9
3.8
3.9
3.9
4.0
4.0
3.8
3.9
4.0
3.3
3.9
4.0
3.7
3.6
3.4
3.4
3.9
3.4
3.0
2.9
3.0
3.4
4.1
3.4
3.3
3.5
3.7
3.5
3.9
4.5
3.5
4.2
3.5
0.95
1002:
3.4
3.0
3.5
3.5
3.5
3.6
3.9
2.9
3.5
3.5
4.0
3.5
3.5
3.4
0.84
10020:
3.7
3.8
3.6
4.1
3.7
3.6
3.7
4.1
4.1
3.7
3.7
4.3
3.9
3.8
3.7
3.7
4.1
3.6
4.1
3.6
4.1
3.5
3.7
3.7
3.5
3.0
4.1
0.89
10021:
2.9
3.3
3.3
2.9
1.62
10022:
2.8
3.4
3.3
3.2
3.4
3.4
2.9
2.9
0.78
10023:
3.7
3.7
3.7
3.6
4.3
3.6
3.5
3.7
3.5
3.7
4.1
0.98
10024:
3.5
3.9
3.5
3.9
3.5
3.4
3.4
3.4
3.6
3.6
0.98
10025:
3.3
1.3
10027:
4.2
3.6
3.6
3.6
3.2
3.6
3.6
4.1
3.5
4.0
3.7
3.7
4.0
3.5
3.7
4.1
3.6
3.8
4.1
3.7
3.6
3.8
3.7
3.6
4.1
3.8
4.1
4.2
4.5
4.2
4.2
4.0
3.5
3.6
4.0
4.2
4.3
3.8
3.8
3.6
4.1
4.1
4.4
3.7
3.6
4.1
3.8
3.7
4.1
4.1
3.7
4.1
3.6
3.6
3.6
3.8
3.6
3.6
4.1
4.1
3.6
3.6
3.8
3.5
4.2
4.3
3.5
4.1
3.5
4.1
4.1
4.1
4.0
3.9
4.2
3.7
4.1
3.8
3.1
3.7
4.3
4.3
3.4
3.7
3.8
4.1
3.7
3.8
1.02
10028:
3.3
3.3
3.2
3.9
4.2
3.2
4.0
0.76
10029:
3.3
3.9
3.9
3.3
0.74
10031:
3.4
3.2
3.8
2.9
3.9
3.3
3.0
2.8
3.2
0.85
10032:
3.4
4.3
4.0
4.1
4.0
3.0
3.6
3.5
3.7
2.9
3.4
4.1
4.2
3.5
4.0
3.1
3.6
3.5
3.5
3.6
3.5
3.6
3.5
3.6
3.6
3.4
3.3
3.6
4.1
3.5
3.6
3.7
4.0
3.7
3.3
4.0
3.5
3.5
3.5
3.5
3.6
3.6
3.5
3.4
3.5
3.6
3.7
0.95
10033:
3.8
3.4
2.9
3.5
3.4
3.2
3.6
3.3
3.7
3.3
3.7
3.4
4.3
3.8
1.12
10034:
2.6
3.3
1.65
10035:
3.0
4.2
4.3
4.1
4.2
4.1
3.6
3.6
3.7
3.6
3.8
3.7
3.8
3.8
3.7
3.7
3.8
4.1
3.9
4.5
0.77
10036:
3.7
3.5
3.6
3.5
3.7
3.6
3.2
3.7
3.1
3.2
3.5
3.6
4.0
3.7
4.2
3.8
3.6
3.7
3.0
3.2
3.7
3.5
4.1
3.7
3.7
4.1
3.7
3.7
3.7
3.2
3.6
3.2
3.1
3.6
3.3
3.6
3.7
3.7
3.6
3.7
3.5
3.7
4.1
3.8
3.7
4.0
4.2
4.5
3.5
3.8
3.5
3.7
3.7
3.2
3.6
3.9
3.5
4.3
3.5
3.8
3.7
4.1
3.5
4.2
3.2
4.2
3.6
3.8
3.7
3.8
4.2
4.0
3.7
3.5
3.7
4.1
4.0
3.5
4.0
4.0
3.7
3.5
4.3
3.8
3.1
3.7
3.6
3.7
3.7
3.6
3.3
4.1
3.6
4.1
3.6
3.5
3.5
3.7
3.6
4.1
4.1
3.4
3.6
4.2
3.5
3.1
3.9
3.5
3.5
3.7
3.7
3.5
3.6
3.7
3.6
3.6
4.2
3.5
3.6
3.7
3.7
3.7
3.7
3.6
3.7
3.5
3.8
4.2
3.6
3.5
4.0
3.5
3.5
4.3
3.6
3.5
3.7
3.7
4.0
3.2
4.2
4.1
3.5
3.6
3.5
4.2
3.5
3.7
3.6
3.5
4.0
3.7
4.0
3.6
3.7
3.5
4.3
3.6
3.6
4.2
3.8
3.5
3.7
3.8
3.6
3.6
3.8
4.1
3.9
3.6
3.5
3.6
4.1
3.6
3.7
3.7
3.6
3.8
3.8
4.1
3.7
4.1
3.5
3.7
4.3
3.6
3.6
3.6
3.8
3.7
3.7
3.5
3.7
4.3
3.8
3.1
3.7
4.0
3.4
3.7
3.7
3.7
3.6
3.7
3.1
4.3
3.7
4.0
3.8
3.6
3.7
3.6
4.1
3.6
3.6
1.00
10037:
3.9
3.4
3.4
3.9
3.8
3.8
3.4
3.0
3.4
3.8
3.4
3.4
3.4
3.4
0.70
10038:
3.9
3.4
3.3
3.4
3.3
3.7
3.7
3.2
0.46
10039:
2.5
1.5
1004:
2.8
2.8
3.2
3.2
3.4
3.3
3.3
3.8
2.8
3.3
3.3
3.5
3.4
3.5
3.1
2.8
3.2
3.3
3.2
3.3
3.4
3.4
3.4
2.5
3.1
2.8
3.2
3.3
3.1
3.3
3.3
0.74
10040:
3.3
3.3
3.7
0.86
10041:
3.7
3.3
3.3
3.2
3.3
3.3
3.8
3.3
2.9
3.2
2.6
3.4
3.8
2.9
3.4
3.4
3.3
3.2
3.3
2.8
3.3
3.3
3.2
3.3
3.4
2.8
3.4
3.0
3.4
3.0
3.4
1.10
10042:
4.0
3.9
4.0
3.9
4.0
4.4
4.5
3.8
4.5
3.9
4.1
3.9
4.3
4.0
4.0
4.4
3.9
4.4
4.3
4.0
4.4
4.4
3.4
4.0
4.0
4.5
4.3
3.3
4.1
4.0
4.3
4.1
4.0
4.5
4.3
4.5
4.0
4.3
3.9
3.8
4.1
3.9
3.9
3.9
4.2
4.4
4.0
3.8
4.0
3.8
4.0
4.4
4.5
3.6
4.5
4.4
3.5
4.1
3.8
3.9
4.0
4.0
4.0
4.0
3.5
3.8
3.9
4.4
3.9
3.8
3.9
3.8
4.0
3.9
3.8
4.5
4.4
4.0
4.0
4.3
3.8
4.2
4.1
4.0
4.4
3.9
4.2
4.1
3.8
4.4
3.9
4.0
4.6
4.0
4.0
4.1
4.0
4.0
4.0
3.9
4.4
4.4
3.9
4.5
4.3
4.0
4.0
4.0
4.5
4.0
4.4
4.0
3.8
4.4
3.8
4.0
4.0
3.8
4.0
4.5
3.8
4.5
4.0
4.5
4.4
4.6
3.8
3.9
4.0
3.9
3.9
4.0
4.0
2.9
4.0
4.0
4.5
4.6
3.9
4.7
4.0
4.5
4.0
3.9
4.0
4.0
4.1
3.5
3.9
4.4
3.9
4.1
4.6
4.0
4.4
4.0
3.9
3.5
3.8
4.3
3.7
4.4
4.0
4.0
3.9
4.4
3.9
3.9
4.0
4.1
4.4
4.4
3.9
3.9
4.4
3.9
4.3
4.5
4.6
4.0
3.9
4.5
4.4
3.9
4.0
4.5
3.9
3.7
4.0
4.4
3.9
4.0
4.4
3.9
4.4
4.5
4.4
4.0
4.0
4.1
4.3
4.4
4.0
4.2
4.1
3.3
4.3
4.0
4.1
3.9
3.9
3.9
4.5
4.4
4.5
4.4
4.4
4.3
4.0
4.3
3.9
4.3
4.4
4.3
4.0
4.1
4.4
3.9
4.2
4.0
4.0
4.0
4.2
4.4
4.5
4.0
4.6
3.9
4.3
4.0
3.9
4.5
4.1
4.4
4.3
4.4
4.5
4.4
4.0
4.1
3.8
4.0
4.6
4.0
4.0
4.2
3.8
4.4
4.3
3.8
3.8
4.0
4.0
4.5
3.5
4.0
4.2
4.4
3.9
3.9
4.0
4.4
4.0
3.9
4.0
3.9
4.0
4.1
4.3
4.3
4.0
3.9
4.4
3.9
4.1
3.9
3.8
4.4
3.9
4.1
4.1
3.9
4.3
3.9
4.1
3.9
3.9
4.3
3.9
4.0
4.3
4.0
4.0
4.0
3.8
4.0
4.0
4.3
4.1
4.1
4.0
3.9
4.6
4.0
4.0
4.4
4.2
4.4
4.4
3.9
4.3
3.9
4.4
4.3
4.4
4.4
4.4
4.0
4.4
4.0
4.4
4.5
3.8
4.4
3.9
4.3
4.3
4.5
3.9
4.4
4.4
4.3
4.4
4.6
3.9
4.1
4.4
4.5
3.9
4.3
4.5
3.9
4.4
3.9
3.8
4.0
4.3
4.4
3.9
4.3
3.9
3.9
4.0
4.0
4.0
4.0
3.8
3.9
4.5
4.1
4.5
4.0
4.0
4.0
4.0
4.5
3.8
3.5
4.1
4.3
4.0
4.0
3.8
4.1
3.9
4.4
4.0
3.9
3.9
4.0
4.0
3.8
4.0
3.8
3.8
4.5
4.0
3.8
4.0
4.1
4.0
4.0
3.9
3.9
4.0
4.0
4.3
4.0
3.8
4.4
4.4
3.8
4.1
4.0
4.4
4.1
3.8
4.5
4.1
3.8
4.6
4.0
4.1
4.5
4.0
3.8
4.4
4.5
4.3
3.9
3.9
4.4
3.8
4.0
4.3
3.8
4.0
3.3
3.9
4.5
4.4
4.4
4.0
4.0
4.4
4.3
4.3
4.2
3.9
3.8
3.9
4.4
4.0
4.4
4.5
4.4
3.9
4.1
4.0
4.4
4.0
3.9
3.9
3.8
4.6
4.0
4.4
3.9
4.1
4.5
4.3
4.0
3.9
4.4
4.5
4.4
4.1
4.5
3.9
3.8
4.0
4.1
3.9
3.9
4.8
3.9
4.2
4.0
4.3
3.9
4.0
3.9
3.8
4.0
4.0
4.4
4.0
4.0
4.0
3.9
3.7
3.8
4.0
3.8
3.6
4.5
4.1
4.4
3.8
4.0
4.0
4.4
4.0
4.0
4.4
4.4
4.5
4.4
3.9
3.9
4.4
3.9
3.9
4.0
4.5
4.3
4.0
3.5
3.4
4.5
4.3
3.8
3.9
4.4
4.5
3.9
4.5
4.5
4.4
4.0
3.9
4.4
4.3
4.0
4.4
4.8
3.8
4.5
4.3
4.0
3.7
3.4
4.4
2.9
4.0
4.4
3.9
3.9
3.8
4.3
3.9
3.9
4.4
4.0
4.4
4.4
4.0
3.8
4.0
3.8
3.9
3.6
3.8
4.4
3.9
4.3
4.0
3.7
4.0
4.0
4.4
3.8
3.9
3.8
3.9
4.2
4.2
4.3
4.4
4.2
4.0
4.0
3.9
3.9
3.8
4.0
4.1
4.1
3.9
3.8
4.0
4.3
4.0
3.8
3.5
4.0
3.9
4.0
4.5
3.8
3.9
3.8
4.7
4.3
3.9
3.9
3.9
4.5
4.2
3.9
3.8
4.0
4.0
4.0
3.8
4.0
3.8
3.5
4.1
3.9
4.0
4.3
4.0
3.9
4.0
3.8
4.5
4.0
4.1
4.4
4.1
3.8
4.1
4.0
4.4
4.4
4.5
3.9
3.9
3.9
3.9
4.0
4.0
4.3
4.4
4.4
4.0
4.3
3.9
4.1
3.4
4.4
3.8
4.0
4.4
4.4
4.0
3.8
3.9
4.0
4.0
3.9
4.4
4.4
4.5
4.1
3.8
4.0
3.8
3.9
4.5
3.9
4.4
3.8
4.0
3.9
3.9
4.7
3.9
3.9
3.9
4.4
4.0
4.0
4.0
4.1
4.1
4.4
4.0
4.0
4.3
3.5
4.2
4.1
4.3
4.4
4.0
3.9
3.9
4.0
4.0
3.8
4.0
4.4
4.1
4.4
4.1
4.2
4.3
4.0
3.8
4.4
4.5
4.0
3.8
3.9
4.0
3.4
3.8
3.9
4.0
4.0
4.4
3.9
4.4
4.3
3.9
4.0
4.4
3.6
4.0
4.0
3.8
4.4
3.9
4.0
4.4
4.3
4.3
4.5
3.9
4.4
4.4
4.0
4.1
4.3
0.83
